{"level":"info","msg":"gRPC serving :3500","time":"2016-04-14T22:56:38Z"}
{"level":"info","msg":"Working directory: /home/gyuho","time":"2016-04-14T22:59:22Z"}
{"level":"info","msg":"etcd data directory: /home/gyuho/data.etcd","time":"2016-04-14T22:59:22Z"}
{"level":"info","msg":"Consul data directory: /home/gyuho/data.consul","time":"2016-04-14T22:59:22Z"}
{"level":"info","msg":"Zookeeper working directory: /home/gyuho/zookeeper","time":"2016-04-14T22:59:22Z"}
{"level":"info","msg":"Zookeeper data directory: /home/gyuho/zookeeper/data.zk","time":"2016-04-14T22:59:22Z"}
{"level":"info","msg":"Database log path: /home/gyuho/database.log","time":"2016-04-14T22:59:22Z"}
{"level":"info","msg":"Monitor result path: /home/gyuho/monitor.csv","time":"2016-04-14T22:59:22Z"}
{"level":"info","msg":"Starting: /home/gyuho/go/bin/etcd --name etcd-3 --data-dir /home/gyuho/data.etcd --listen-client-urls http://10.240.0.30:2379 --advertise-client-urls http://10.240.0.30:2379 --listen-peer-urls http://10.240.0.30:2380 --initial-advertise-peer-urls http://10.240.0.30:2380 --initial-cluster-token etcd_token --initial-cluster etcd-1=http://10.240.0.28:2380,etcd-2=http://10.240.0.29:2380,etcd-3=http://10.240.0.30:2380 --initial-cluster-state new","time":"2016-04-14T22:59:22Z"}
{"level":"info","msg":"Started: /home/gyuho/go/bin/etcd [PID: 23869]","time":"2016-04-14T22:59:22Z"}
{"level":"info","msg":"Transfer success!","time":"2016-04-14T22:59:22Z"}
{"level":"info","msg":"etcdv3 monitor saved at /home/gyuho/monitor.csv","time":"2016-04-14T22:59:22Z"}
{"level":"info","msg":"Stopping etcdv3 [PID: 23869]","time":"2016-04-14T23:01:07Z"}
{"level":"info","msg":"Stopped: /home/gyuho/go/bin/etcd [PID: 23869]","time":"2016-04-14T23:01:07Z"}
{"level":"info","msg":"Transfer success!","time":"2016-04-14T23:01:07Z"}
{"level":"info","msg":"Monitoring stopped. Uploading data to cloud storage...","time":"2016-04-14T23:01:07Z"}
{"level":"info","msg":"Uploading /home/gyuho/database.log to bench-02-etcdv3-3-database.log","time":"2016-04-14T23:01:07Z"}
{"level":"info","msg":"/home/gyuho/go/bin/etcd cmd.Wait returned signal: terminated","time":"2016-04-14T23:01:07Z"}
{"level":"info","msg":"googleapi: Error 429: The project exceeded the rate limit for creating and deleting buckets., rateLimitExceeded","time":"2016-04-14T23:01:07Z"}
{"level":"info","msg":"googleapi: Error 429: The project exceeded the rate limit for creating and deleting buckets., rateLimitExceeded","time":"2016-04-14T23:01:07Z"}
{"level":"info","msg":"googleapi: Error 429: The project exceeded the rate limit for creating and deleting buckets., rateLimitExceeded","time":"2016-04-14T23:01:07Z"}
{"level":"info","msg":"googleapi: Error 429: The project exceeded the rate limit for creating and deleting buckets., rateLimitExceeded","time":"2016-04-14T23:01:08Z"}
{"level":"info","msg":"googleapi: Error 429: The project exceeded the rate limit for creating and deleting buckets., rateLimitExceeded","time":"2016-04-14T23:01:08Z"}
{"level":"info","msg":"Uploading /home/gyuho/monitor.csv to bench-02-etcdv3-3-monitor.csv","time":"2016-04-14T23:01:08Z"}
{"level":"info","msg":"Uploading /home/gyuho/agent.log to bench-02-etcdv3-3-agent.log","time":"2016-04-14T23:01:08Z"}
{"level":"info","msg":"googleapi: Error 429: The project exceeded the rate limit for creating and deleting buckets., rateLimitExceeded","time":"2016-04-14T23:01:08Z"}
{"level":"info","msg":"googleapi: Error 429: The project exceeded the rate limit for creating and deleting buckets., rateLimitExceeded","time":"2016-04-14T23:01:09Z"}
