{"level":"info","msg":"gRPC serving :3500","time":"2016-04-19T04:47:33Z"}
{"level":"info","msg":"Working directory: /home/gyuho","time":"2016-04-19T04:49:27Z"}
{"level":"info","msg":"etcd data directory: /home/gyuho/data.etcd","time":"2016-04-19T04:49:27Z"}
{"level":"info","msg":"Consul data directory: /home/gyuho/data.consul","time":"2016-04-19T04:49:27Z"}
{"level":"info","msg":"Zookeeper working directory: /home/gyuho/zookeeper","time":"2016-04-19T04:49:27Z"}
{"level":"info","msg":"Zookeeper data directory: /home/gyuho/zookeeper/data.zk","time":"2016-04-19T04:49:27Z"}
{"level":"info","msg":"Database log path: /home/gyuho/database.log","time":"2016-04-19T04:49:27Z"}
{"level":"info","msg":"Monitor result path: /home/gyuho/monitor.csv","time":"2016-04-19T04:49:27Z"}
{"level":"info","msg":"Starting: /home/gyuho/go/bin/consul agent -server -data-dir /home/gyuho/data.consul -bind 10.240.0.7 -client 10.240.0.7 -bootstrap-expect 3","time":"2016-04-19T04:49:27Z"}
{"level":"info","msg":"Started: /home/gyuho/go/bin/consul [PID: 18323]","time":"2016-04-19T04:49:27Z"}
{"level":"info","msg":"Transfer success!","time":"2016-04-19T04:49:27Z"}
{"level":"info","msg":"Consul monitor saved at /home/gyuho/monitor.csv","time":"2016-04-19T04:49:27Z"}
{"level":"info","msg":"Stopping Consul [PID: 18323]","time":"2016-04-19T05:29:56Z"}
{"level":"info","msg":"Stopped: /home/gyuho/go/bin/consul [PID: 18323]","time":"2016-04-19T05:29:56Z"}
{"level":"info","msg":"Transfer success!","time":"2016-04-19T05:29:56Z"}
{"level":"info","msg":"Monitoring stopped. Uploading data to cloud storage...","time":"2016-04-19T05:29:56Z"}
{"level":"info","msg":"Uploading /home/gyuho/database.log to 2016041801/07-consul-1-database.log","time":"2016-04-19T05:29:56Z"}
{"level":"info","msg":"/home/gyuho/go/bin/consul cmd.Wait returned exit status 1","time":"2016-04-19T05:29:56Z"}
{"level":"info","msg":"Uploading /home/gyuho/monitor.csv to 2016041801/07-consul-1-monitor.csv","time":"2016-04-19T05:29:57Z"}
{"level":"info","msg":"Uploading /home/gyuho/agent.log to 2016041801/07-consul-1-agent.log","time":"2016-04-19T05:29:57Z"}
