==> WARNING: Expect Mode enabled, expecting 3 servers
==> Starting Consul agent...
==> Starting Consul agent RPC...
==> Consul agent running!
         Node name: 'tm04'
        Datacenter: 'dc1'
            Server: true (bootstrap: false)
       Client Addr: 10.240.0.16 (HTTP: 8500, HTTPS: -1, DNS: 8600, RPC: 8400)
      Cluster Addr: 10.240.0.16 (LAN: 8301, WAN: 8302)
    Gossip encrypt: false, RPC-TLS: false, TLS-Incoming: false
             Atlas: <disabled>

==> Log data will now stream in as it occurs:

    2016/04/19 05:10:52 [INFO] raft: Node at 10.240.0.16:8300 [Follower] entering Follower state
    2016/04/19 05:10:52 [INFO] serf: EventMemberJoin: tm04 10.240.0.16
    2016/04/19 05:10:52 [INFO] serf: EventMemberJoin: tm04.dc1 10.240.0.16
    2016/04/19 05:10:52 [INFO] consul: adding LAN server tm04 (Addr: 10.240.0.16:8300) (DC: dc1)
    2016/04/19 05:10:52 [INFO] consul: adding WAN server tm04.dc1 (Addr: 10.240.0.16:8300) (DC: dc1)
    2016/04/19 05:10:52 [ERR] agent: failed to sync remote state: No cluster leader
    2016/04/19 05:10:53 [INFO] serf: EventMemberJoin: tm05 10.240.0.17
    2016/04/19 05:10:53 [INFO] consul: adding LAN server tm05 (Addr: 10.240.0.17:8300) (DC: dc1)
    2016/04/19 05:10:54 [WARN] raft: EnableSingleNode disabled, and no known peers. Aborting election.
    2016/04/19 05:10:54 [INFO] serf: EventMemberJoin: tm06 10.240.0.18
    2016/04/19 05:10:54 [INFO] consul: adding LAN server tm06 (Addr: 10.240.0.18:8300) (DC: dc1)
    2016/04/19 05:10:54 [INFO] consul: Attempting bootstrap with nodes: [10.240.0.18:8300 10.240.0.16:8300 10.240.0.17:8300]
    2016/04/19 05:10:55 [WARN] raft: Heartbeat timeout reached, starting election
    2016/04/19 05:10:55 [INFO] raft: Node at 10.240.0.16:8300 [Candidate] entering Candidate state
    2016/04/19 05:10:55 [WARN] raft: Remote peer 10.240.0.17:8300 does not have local node 10.240.0.16:8300 as a peer
    2016/04/19 05:10:55 [INFO] raft: Election won. Tally: 2
    2016/04/19 05:10:55 [WARN] raft: Remote peer 10.240.0.18:8300 does not have local node 10.240.0.16:8300 as a peer
    2016/04/19 05:10:55 [INFO] raft: Node at 10.240.0.16:8300 [Leader] entering Leader state
    2016/04/19 05:10:55 [INFO] consul: cluster leadership acquired
    2016/04/19 05:10:55 [INFO] consul: New leader elected: tm04
    2016/04/19 05:10:55 [INFO] raft: pipelining replication to peer 10.240.0.17:8300
    2016/04/19 05:10:55 [INFO] raft: pipelining replication to peer 10.240.0.18:8300
    2016/04/19 05:10:55 [INFO] consul: member 'tm05' joined, marking health alive
    2016/04/19 05:10:55 [INFO] consul: member 'tm06' joined, marking health alive
    2016/04/19 05:10:55 [INFO] consul: member 'tm04' joined, marking health alive
    2016/04/19 05:10:57 [INFO] agent: Synced service 'consul'
==> Caught signal: terminated
    2016/04/19 05:13:17 [INFO] agent: requesting shutdown
    2016/04/19 05:13:17 [INFO] consul: shutting down server
    2016/04/19 05:13:17 [WARN] serf: Shutdown without a Leave
    2016/04/19 05:13:17 [ERR] dns: error starting tcp server: accept tcp 10.240.0.16:8600: use of closed network connection
    2016/04/19 05:13:17 [WARN] serf: Shutdown without a Leave
    2016/04/19 05:13:17 [INFO] raft: aborting pipeline replication to peer 10.240.0.18:8300
    2016/04/19 05:13:17 [INFO] raft: aborting pipeline replication to peer 10.240.0.17:8300
    2016/04/19 05:13:17 [INFO] agent: shutdown complete
