{"level":"info","msg":"gRPC serving :3500","time":"2016-04-15T21:57:50Z"}
{"level":"info","msg":"Working directory: /home/gyuho","time":"2016-04-15T22:01:08Z"}
{"level":"info","msg":"etcd data directory: /home/gyuho/data.etcd","time":"2016-04-15T22:01:08Z"}
{"level":"info","msg":"Consul data directory: /home/gyuho/data.consul","time":"2016-04-15T22:01:08Z"}
{"level":"info","msg":"Zookeeper working directory: /home/gyuho/zookeeper","time":"2016-04-15T22:01:08Z"}
{"level":"info","msg":"Zookeeper data directory: /home/gyuho/zookeeper/data.zk","time":"2016-04-15T22:01:08Z"}
{"level":"info","msg":"Database log path: /home/gyuho/database.log","time":"2016-04-15T22:01:08Z"}
{"level":"info","msg":"Monitor result path: /home/gyuho/monitor.csv","time":"2016-04-15T22:01:08Z"}
{"level":"info","msg":"os.Chdir: /home/gyuho/zookeeper","time":"2016-04-15T22:01:08Z"}
{"level":"info","msg":"os.MkdirAll: /home/gyuho/zookeeper/data.zk","time":"2016-04-15T22:01:08Z"}
{"level":"info","msg":"Writing 2 to /home/gyuho/zookeeper/data.zk/myid","time":"2016-04-15T22:01:08Z"}
{"level":"info","msg":"Writing \"tickTime=2000\\ndataDir=/home/gyuho/zookeeper/data.zk\\nclientPort=2181\\ninitLimit=5\\nsyncLimit=5\\nmaxClientCnxns=5000\\nsnapCount=1000000\\nserver.1=10.240.0.24:2888:3888\\nserver.2=10.240.0.25:2888:3888\\nserver.3=10.240.0.26:2888:3888\\n\\n\" to /home/gyuho/zookeeper/zookeeper.config","time":"2016-04-15T22:01:08Z"}
{"level":"info","msg":"Starting: /bin/bash -c /usr/bin/java -cp zookeeper-3.4.8.jar:lib/slf4j-api-1.6.1.jar:lib/slf4j-log4j12-1.6.1.jar:lib/log4j-1.2.16.jar:conf org.apache.zookeeper.server.quorum.QuorumPeerMain /home/gyuho/zookeeper/zookeeper.config","time":"2016-04-15T22:01:08Z"}
{"level":"info","msg":"Started: /bin/bash [PID: 18436]","time":"2016-04-15T22:01:08Z"}
{"level":"info","msg":"Transfer success!","time":"2016-04-15T22:01:08Z"}
{"level":"info","msg":"ZooKeeper monitor saved at /home/gyuho/monitor.csv","time":"2016-04-15T22:01:08Z"}
{"level":"info","msg":"Stopping ZooKeeper [PID: 18436]","time":"2016-04-15T22:02:25Z"}
{"level":"info","msg":"Stopped: /bin/bash [PID: 18436]","time":"2016-04-15T22:02:25Z"}
{"level":"info","msg":"Transfer success!","time":"2016-04-15T22:02:25Z"}
{"level":"info","msg":"Monitoring stopped. Uploading data to cloud storage...","time":"2016-04-15T22:02:25Z"}
{"level":"info","msg":"Uploading /home/gyuho/database.log to bench-01-zk-snapshot3-2-database.log","time":"2016-04-15T22:02:25Z"}
{"level":"info","msg":"googleapi: Error 429: The project exceeded the rate limit for creating and deleting buckets., rateLimitExceeded","time":"2016-04-15T22:02:25Z"}
{"level":"info","msg":"/bin/bash cmd.Wait returned exit status 143","time":"2016-04-15T22:02:26Z"}
{"level":"info","msg":"Uploading /home/gyuho/monitor.csv to bench-01-zk-snapshot3-2-monitor.csv","time":"2016-04-15T22:02:28Z"}
{"level":"info","msg":"Uploading /home/gyuho/agent.log to bench-01-zk-snapshot3-2-agent.log","time":"2016-04-15T22:02:29Z"}
