2016-04-12 19:38:17.727008 I | etcdmain: etcd Version: 2.3.0+git
2016-04-12 19:38:17.727074 I | etcdmain: Git SHA: Not provided (use ./build instead of go build)
2016-04-12 19:38:17.727081 I | etcdmain: Go Version: go1.6
2016-04-12 19:38:17.727087 I | etcdmain: Go OS/Arch: linux/amd64
2016-04-12 19:38:17.727098 I | etcdmain: setting maximum number of CPUs to 8, total number of available CPUs is 8
2016-04-12 19:38:17.727162 I | etcdmain: listening for peers on http://10.240.0.14:2380
2016-04-12 19:38:17.727191 I | etcdmain: listening for client requests on 10.240.0.14:2379
2016-04-12 19:38:17.732348 I | etcdserver: name = etcd-3
2016-04-12 19:38:17.732372 I | etcdserver: data dir = /home/gyuho/data.etcd
2016-04-12 19:38:17.732380 I | etcdserver: member dir = /home/gyuho/data.etcd/member
2016-04-12 19:38:17.732386 I | etcdserver: heartbeat = 100ms
2016-04-12 19:38:17.732392 I | etcdserver: election = 1000ms
2016-04-12 19:38:17.732398 I | etcdserver: snapshot count = 10000
2016-04-12 19:38:17.732408 I | etcdserver: advertise client URLs = http://10.240.0.14:2379
2016-04-12 19:38:17.732416 I | etcdserver: initial advertise peer URLs = http://10.240.0.14:2380
2016-04-12 19:38:17.732437 I | etcdserver: initial cluster = etcd-1=http://10.240.0.7:2380,etcd-2=http://10.240.0.13:2380,etcd-3=http://10.240.0.14:2380
2016-04-12 19:38:17.735028 I | etcdserver: starting member f9e96ef8c0d0e08c in cluster 14edf9cb39308b6e
2016-04-12 19:38:17.735076 I | raft: f9e96ef8c0d0e08c became follower at term 0
2016-04-12 19:38:17.735091 I | raft: newRaft f9e96ef8c0d0e08c [peers: [], term: 0, commit: 0, applied: 0, lastindex: 0, lastterm: 0]
2016-04-12 19:38:17.735098 I | raft: f9e96ef8c0d0e08c became follower at term 1
2016-04-12 19:38:17.748045 I | rafthttp: the connection with cfc6e2e1de0e7922 became active
2016-04-12 19:38:17.748539 I | etcdserver: starting server... [version: 2.3.0+git, cluster version: to_be_decided]
2016-04-12 19:38:17.749265 E | etcdmain: failed to notify systemd for readiness: No socket
2016-04-12 19:38:17.749305 E | etcdmain: forgot to set Type=notify in systemd service file?
2016-04-12 19:38:17.750128 N | etcdmain: serving insecure client requests on 10.240.0.14:2379, this is strongly discouraged!
2016-04-12 19:38:17.750207 N | etcdserver: added member cfc6e2e1de0e7922 [http://10.240.0.13:2380] to cluster 14edf9cb39308b6e
2016-04-12 19:38:17.750353 I | raft: f9e96ef8c0d0e08c [term: 1] received a MsgApp message with higher term from ec572e55c25f926a [term: 3]
2016-04-12 19:38:17.750430 I | raft: f9e96ef8c0d0e08c became follower at term 3
2016-04-12 19:38:17.750465 I | raft: raft.node: f9e96ef8c0d0e08c elected leader ec572e55c25f926a at term 3
2016-04-12 19:38:17.750588 N | etcdserver: added member ec572e55c25f926a [http://10.240.0.7:2380] to cluster 14edf9cb39308b6e
2016-04-12 19:38:17.750688 N | etcdserver: added local member f9e96ef8c0d0e08c [http://10.240.0.14:2380] to cluster 14edf9cb39308b6e
2016-04-12 19:38:17.750792 I | rafthttp: the connection with ec572e55c25f926a became active
2016-04-12 19:38:17.751857 N | membership: set the initial cluster version to 2.2
2016-04-12 19:38:17.755935 I | etcdserver: published {Name:etcd-3 ClientURLs:[http://10.240.0.14:2379]} to cluster 14edf9cb39308b6e
2016-04-12 19:38:18.249984 I | v2http: enabled capabilities for version 2.2.0
2016-04-12 19:38:21.644472 N | membership: updated the cluster version from 2.2 to 2.3
2016-04-12 19:38:21.751109 I | v2http: enabled capabilities for version 2.3.0
2016-04-12 19:38:24.090194 I | etcdserver: start to snapshot (applied: 10314, lastsnap: 0)
2016-04-12 19:38:24.107736 I | etcdserver: saved snapshot at index 10314
2016-04-12 19:38:24.108013 I | etcdserver: compacted raft log at 5314
2016-04-12 19:38:24.392900 I | etcdserver: start to snapshot (applied: 20636, lastsnap: 10314)
2016-04-12 19:38:24.407028 I | etcdserver: saved snapshot at index 20636
2016-04-12 19:38:24.407186 I | etcdserver: compacted raft log at 15636
2016-04-12 19:38:24.696521 I | etcdserver: start to snapshot (applied: 30787, lastsnap: 20636)
2016-04-12 19:38:24.704263 I | etcdserver: saved snapshot at index 30787
2016-04-12 19:38:24.704412 I | etcdserver: compacted raft log at 25787
2016-04-12 19:38:24.998139 I | etcdserver: start to snapshot (applied: 40839, lastsnap: 30787)
2016-04-12 19:38:25.005986 I | etcdserver: saved snapshot at index 40839
2016-04-12 19:38:25.006174 I | etcdserver: compacted raft log at 35839
2016-04-12 19:38:25.328616 I | etcdserver: start to snapshot (applied: 51004, lastsnap: 40839)
2016-04-12 19:38:25.339158 I | etcdserver: saved snapshot at index 51004
2016-04-12 19:38:25.339334 I | etcdserver: compacted raft log at 46004
2016-04-12 19:38:25.692880 I | etcdserver: start to snapshot (applied: 61096, lastsnap: 51004)
2016-04-12 19:38:25.701315 I | etcdserver: saved snapshot at index 61096
2016-04-12 19:38:25.701659 I | etcdserver: compacted raft log at 56096
2016-04-12 19:38:26.036462 I | etcdserver: start to snapshot (applied: 71371, lastsnap: 61096)
2016-04-12 19:38:26.044146 I | etcdserver: saved snapshot at index 71371
2016-04-12 19:38:26.044425 I | etcdserver: compacted raft log at 66371
2016-04-12 19:38:26.391020 I | etcdserver: start to snapshot (applied: 81413, lastsnap: 71371)
2016-04-12 19:38:26.399962 I | etcdserver: saved snapshot at index 81413
2016-04-12 19:38:26.413585 I | etcdserver: compacted raft log at 76413
2016-04-12 19:38:26.720855 I | etcdserver: start to snapshot (applied: 91507, lastsnap: 81413)
2016-04-12 19:38:26.730726 I | etcdserver: saved snapshot at index 91507
2016-04-12 19:38:26.730917 I | etcdserver: compacted raft log at 86507
2016-04-12 19:38:27.068437 I | etcdserver: start to snapshot (applied: 101588, lastsnap: 91507)
2016-04-12 19:38:27.080194 I | etcdserver: saved snapshot at index 101588
2016-04-12 19:38:27.080421 I | etcdserver: compacted raft log at 96588
2016-04-12 19:38:27.412087 I | etcdserver: start to snapshot (applied: 111845, lastsnap: 101588)
2016-04-12 19:38:27.443512 I | etcdserver: saved snapshot at index 111845
2016-04-12 19:38:27.444089 I | etcdserver: compacted raft log at 106845
2016-04-12 19:38:27.777109 I | etcdserver: start to snapshot (applied: 122049, lastsnap: 111845)
2016-04-12 19:38:27.783708 I | etcdserver: saved snapshot at index 122049
2016-04-12 19:38:27.783921 I | etcdserver: compacted raft log at 117049
2016-04-12 19:38:28.133370 I | etcdserver: start to snapshot (applied: 132159, lastsnap: 122049)
2016-04-12 19:38:28.140106 I | etcdserver: saved snapshot at index 132159
2016-04-12 19:38:28.140534 I | etcdserver: compacted raft log at 127159
2016-04-12 19:38:28.460061 I | etcdserver: start to snapshot (applied: 142214, lastsnap: 132159)
2016-04-12 19:38:28.471095 I | etcdserver: saved snapshot at index 142214
2016-04-12 19:38:28.471318 I | etcdserver: compacted raft log at 137214
2016-04-12 19:38:28.787835 I | etcdserver: start to snapshot (applied: 152279, lastsnap: 142214)
2016-04-12 19:38:28.811157 I | etcdserver: saved snapshot at index 152279
2016-04-12 19:38:28.811337 I | etcdserver: compacted raft log at 147279
2016-04-12 19:38:29.157167 I | etcdserver: start to snapshot (applied: 162362, lastsnap: 152279)
2016-04-12 19:38:29.170722 I | etcdserver: saved snapshot at index 162362
2016-04-12 19:38:29.170857 I | etcdserver: compacted raft log at 157362
2016-04-12 19:38:29.508146 I | etcdserver: start to snapshot (applied: 172449, lastsnap: 162362)
2016-04-12 19:38:29.516079 I | etcdserver: saved snapshot at index 172449
2016-04-12 19:38:29.516320 I | etcdserver: compacted raft log at 167449
2016-04-12 19:38:29.540156 I | wal: segmented wal file /home/gyuho/data.etcd/member/wal/0000000000000001-000000000002a645.wal is created
2016-04-12 19:38:29.869383 I | etcdserver: start to snapshot (applied: 182732, lastsnap: 172449)
2016-04-12 19:38:29.897123 I | etcdserver: saved snapshot at index 182732
2016-04-12 19:38:29.897344 I | etcdserver: compacted raft log at 177732
2016-04-12 19:38:30.235776 I | etcdserver: start to snapshot (applied: 192905, lastsnap: 182732)
2016-04-12 19:38:30.245337 I | etcdserver: saved snapshot at index 192905
2016-04-12 19:38:30.245495 I | etcdserver: compacted raft log at 187905
2016-04-12 19:38:30.626026 I | etcdserver: start to snapshot (applied: 202980, lastsnap: 192905)
2016-04-12 19:38:30.634834 I | etcdserver: saved snapshot at index 202980
2016-04-12 19:38:30.635045 I | etcdserver: compacted raft log at 197980
2016-04-12 19:38:30.984077 I | etcdserver: start to snapshot (applied: 213160, lastsnap: 202980)
2016-04-12 19:38:30.995310 I | etcdserver: saved snapshot at index 213160
2016-04-12 19:38:30.995598 I | etcdserver: compacted raft log at 208160
2016-04-12 19:38:31.395072 I | etcdserver: start to snapshot (applied: 223168, lastsnap: 213160)
2016-04-12 19:38:31.408564 I | etcdserver: saved snapshot at index 223168
2016-04-12 19:38:31.408780 I | etcdserver: compacted raft log at 218168
2016-04-12 19:38:31.792454 I | etcdserver: start to snapshot (applied: 233242, lastsnap: 223168)
2016-04-12 19:38:31.819411 I | etcdserver: saved snapshot at index 233242
2016-04-12 19:38:31.827531 I | etcdserver: compacted raft log at 228242
2016-04-12 19:38:32.215811 I | etcdserver: start to snapshot (applied: 243261, lastsnap: 233242)
2016-04-12 19:38:32.224145 I | etcdserver: saved snapshot at index 243261
2016-04-12 19:38:32.224310 I | etcdserver: compacted raft log at 238261
2016-04-12 19:38:32.966781 I | etcdserver: start to snapshot (applied: 254933, lastsnap: 243261)
2016-04-12 19:38:33.768522 I | etcdserver: saved snapshot at index 254933
2016-04-12 19:38:33.769661 I | etcdserver: compacted raft log at 249933
2016-04-12 19:38:34.063833 I | etcdserver: start to snapshot (applied: 269644, lastsnap: 254933)
2016-04-12 19:38:34.077420 I | etcdserver: saved snapshot at index 269644
2016-04-12 19:38:34.078011 I | etcdserver: compacted raft log at 264644
2016-04-12 19:38:34.320626 I | etcdserver: start to snapshot (applied: 279678, lastsnap: 269644)
2016-04-12 19:38:34.336404 I | etcdserver: saved snapshot at index 279678
2016-04-12 19:38:34.336997 I | etcdserver: compacted raft log at 274678
2016-04-12 19:38:34.554288 I | etcdserver: start to snapshot (applied: 289728, lastsnap: 279678)
2016-04-12 19:38:34.561820 I | etcdserver: saved snapshot at index 289728
2016-04-12 19:38:34.562016 I | etcdserver: compacted raft log at 284728
2016-04-12 19:38:34.929455 I | etcdserver: start to snapshot (applied: 299846, lastsnap: 289728)
2016-04-12 19:38:34.941435 I | etcdserver: saved snapshot at index 299846
2016-04-12 19:38:34.941595 I | etcdserver: compacted raft log at 294846
2016-04-12 19:38:35.345079 I | etcdserver: start to snapshot (applied: 309962, lastsnap: 299846)
2016-04-12 19:38:35.353976 I | etcdserver: saved snapshot at index 309962
2016-04-12 19:38:35.354730 I | etcdserver: compacted raft log at 304962
2016-04-12 19:38:35.707997 I | etcdserver: start to snapshot (applied: 320073, lastsnap: 309962)
2016-04-12 19:38:35.716023 I | etcdserver: saved snapshot at index 320073
2016-04-12 19:38:35.716222 I | etcdserver: compacted raft log at 315073
2016-04-12 19:38:36.076617 I | etcdserver: start to snapshot (applied: 330235, lastsnap: 320073)
2016-04-12 19:38:36.088778 I | etcdserver: saved snapshot at index 330235
2016-04-12 19:38:36.088967 I | etcdserver: compacted raft log at 325235
2016-04-12 19:38:36.470391 I | etcdserver: start to snapshot (applied: 340356, lastsnap: 330235)
2016-04-12 19:38:36.486237 I | etcdserver: saved snapshot at index 340356
2016-04-12 19:38:36.486425 I | etcdserver: compacted raft log at 335356
2016-04-12 19:38:36.756238 I | wal: segmented wal file /home/gyuho/data.etcd/member/wal/0000000000000002-0000000000054c13.wal is created
2016-04-12 19:38:36.889128 I | etcdserver: start to snapshot (applied: 350558, lastsnap: 340356)
2016-04-12 19:38:36.901330 I | etcdserver: saved snapshot at index 350558
2016-04-12 19:38:36.901541 I | etcdserver: compacted raft log at 345558
2016-04-12 19:38:37.279832 I | etcdserver: start to snapshot (applied: 361412, lastsnap: 350558)
2016-04-12 19:38:37.289209 I | etcdserver: saved snapshot at index 361412
2016-04-12 19:38:37.289413 I | etcdserver: compacted raft log at 356412
2016-04-12 19:38:37.693873 I | etcdserver: start to snapshot (applied: 371520, lastsnap: 361412)
2016-04-12 19:38:37.707613 I | etcdserver: saved snapshot at index 371520
2016-04-12 19:38:37.707969 I | etcdserver: compacted raft log at 366520
2016-04-12 19:38:38.014166 I | etcdserver: start to snapshot (applied: 381715, lastsnap: 371520)
2016-04-12 19:38:38.033120 I | etcdserver: saved snapshot at index 381715
2016-04-12 19:38:38.033420 I | etcdserver: compacted raft log at 376715
2016-04-12 19:38:38.406187 I | etcdserver: start to snapshot (applied: 391816, lastsnap: 381715)
2016-04-12 19:38:38.426321 I | etcdserver: saved snapshot at index 391816
2016-04-12 19:38:38.426516 I | etcdserver: compacted raft log at 386816
2016-04-12 19:38:38.728073 I | etcdserver: start to snapshot (applied: 401852, lastsnap: 391816)
2016-04-12 19:38:38.859358 I | etcdserver: saved snapshot at index 401852
2016-04-12 19:38:38.859550 I | etcdserver: compacted raft log at 396852
2016-04-12 19:38:39.146546 I | etcdserver: start to snapshot (applied: 411862, lastsnap: 401852)
2016-04-12 19:38:39.164213 I | etcdserver: saved snapshot at index 411862
2016-04-12 19:38:39.164388 I | etcdserver: compacted raft log at 406862
2016-04-12 19:38:39.569553 I | etcdserver: start to snapshot (applied: 421919, lastsnap: 411862)
2016-04-12 19:38:39.580568 I | etcdserver: saved snapshot at index 421919
2016-04-12 19:38:39.580783 I | etcdserver: compacted raft log at 416919
2016-04-12 19:38:39.884968 I | etcdserver: start to snapshot (applied: 431941, lastsnap: 421919)
2016-04-12 19:38:39.916941 I | etcdserver: saved snapshot at index 431941
2016-04-12 19:38:39.917318 I | etcdserver: compacted raft log at 426941
2016-04-12 19:38:40.228809 I | etcdserver: start to snapshot (applied: 441967, lastsnap: 431941)
2016-04-12 19:38:40.242826 I | etcdserver: saved snapshot at index 441967
2016-04-12 19:38:40.243059 I | etcdserver: compacted raft log at 436967
2016-04-12 19:38:40.625667 I | etcdserver: start to snapshot (applied: 452214, lastsnap: 441967)
2016-04-12 19:38:40.649958 I | etcdserver: saved snapshot at index 452214
2016-04-12 19:38:40.651412 I | etcdserver: compacted raft log at 447214
2016-04-12 19:38:40.998391 I | etcdserver: start to snapshot (applied: 462507, lastsnap: 452214)
2016-04-12 19:38:41.007582 I | etcdserver: saved snapshot at index 462507
2016-04-12 19:38:41.007842 I | etcdserver: compacted raft log at 457507
2016-04-12 19:38:41.365483 I | etcdserver: start to snapshot (applied: 472517, lastsnap: 462507)
2016-04-12 19:38:41.377945 I | etcdserver: saved snapshot at index 472517
2016-04-12 19:38:41.378136 I | etcdserver: compacted raft log at 467517
2016-04-12 19:38:41.660424 I | etcdserver: start to snapshot (applied: 482539, lastsnap: 472517)
2016-04-12 19:38:41.685759 I | etcdserver: saved snapshot at index 482539
2016-04-12 19:38:41.685942 I | etcdserver: compacted raft log at 477539
2016-04-12 19:38:42.104963 I | etcdserver: start to snapshot (applied: 493371, lastsnap: 482539)
2016-04-12 19:38:42.116545 I | etcdserver: saved snapshot at index 493371
2016-04-12 19:38:42.116735 I | etcdserver: compacted raft log at 488371
2016-04-12 19:38:42.464971 I | etcdserver: start to snapshot (applied: 503637, lastsnap: 493371)
2016-04-12 19:38:42.486955 I | etcdserver: saved snapshot at index 503637
2016-04-12 19:38:42.487142 I | etcdserver: compacted raft log at 498637
2016-04-12 19:38:42.855380 I | etcdserver: start to snapshot (applied: 513682, lastsnap: 503637)
2016-04-12 19:38:42.866488 I | etcdserver: saved snapshot at index 513682
2016-04-12 19:38:42.866628 I | etcdserver: compacted raft log at 508682
2016-04-12 19:38:43.054196 I | wal: segmented wal file /home/gyuho/data.etcd/member/wal/0000000000000003-000000000007f213.wal is created
2016-04-12 19:38:43.226670 I | etcdserver: start to snapshot (applied: 523919, lastsnap: 513682)
2016-04-12 19:38:43.239708 I | etcdserver: saved snapshot at index 523919
2016-04-12 19:38:43.239884 I | etcdserver: compacted raft log at 518919
2016-04-12 19:38:43.550655 I | etcdserver: start to snapshot (applied: 533935, lastsnap: 523919)
2016-04-12 19:38:43.560425 I | etcdserver: saved snapshot at index 533935
2016-04-12 19:38:43.560606 I | etcdserver: compacted raft log at 528935
2016-04-12 19:38:43.914423 I | etcdserver: start to snapshot (applied: 543991, lastsnap: 533935)
2016-04-12 19:38:43.927260 I | etcdserver: saved snapshot at index 543991
2016-04-12 19:38:43.927437 I | etcdserver: compacted raft log at 538991
2016-04-12 19:38:44.297669 I | etcdserver: start to snapshot (applied: 554090, lastsnap: 543991)
2016-04-12 19:38:44.338441 I | etcdserver: saved snapshot at index 554090
2016-04-12 19:38:44.340483 I | etcdserver: compacted raft log at 549090
2016-04-12 19:38:44.665358 I | etcdserver: start to snapshot (applied: 564575, lastsnap: 554090)
2016-04-12 19:38:44.674857 I | etcdserver: saved snapshot at index 564575
2016-04-12 19:38:44.675001 I | etcdserver: compacted raft log at 559575
2016-04-12 19:38:45.014985 I | etcdserver: start to snapshot (applied: 574754, lastsnap: 564575)
2016-04-12 19:38:45.039571 I | etcdserver: saved snapshot at index 574754
2016-04-12 19:38:45.039788 I | etcdserver: compacted raft log at 569754
2016-04-12 19:38:45.355473 I | etcdserver: start to snapshot (applied: 584804, lastsnap: 574754)
2016-04-12 19:38:45.368892 I | etcdserver: saved snapshot at index 584804
2016-04-12 19:38:45.369116 I | etcdserver: compacted raft log at 579804
2016-04-12 19:38:45.663814 I | etcdserver: start to snapshot (applied: 594833, lastsnap: 584804)
2016-04-12 19:38:45.674328 I | etcdserver: saved snapshot at index 594833
2016-04-12 19:38:45.674516 I | etcdserver: compacted raft log at 589833
2016-04-12 19:38:46.129693 I | etcdserver: start to snapshot (applied: 605023, lastsnap: 594833)
2016-04-12 19:38:46.135146 I | etcdserver: saved snapshot at index 605023
2016-04-12 19:38:46.135381 I | etcdserver: compacted raft log at 600023
2016-04-12 19:38:46.488667 I | etcdserver: start to snapshot (applied: 615393, lastsnap: 605023)
2016-04-12 19:38:46.503769 I | etcdserver: saved snapshot at index 615393
2016-04-12 19:38:46.504022 I | etcdserver: compacted raft log at 610393
2016-04-12 19:38:46.788694 I | etcdserver: start to snapshot (applied: 625418, lastsnap: 615393)
2016-04-12 19:38:46.797315 I | etcdserver: saved snapshot at index 625418
2016-04-12 19:38:46.797517 I | etcdserver: compacted raft log at 620418
2016-04-12 19:38:47.168511 I | etcdserver: start to snapshot (applied: 635460, lastsnap: 625418)
2016-04-12 19:38:47.180627 I | etcdserver: saved snapshot at index 635460
2016-04-12 19:38:47.180810 I | etcdserver: compacted raft log at 630460
2016-04-12 19:38:47.550225 I | etcdserver: start to snapshot (applied: 645497, lastsnap: 635460)
2016-04-12 19:38:47.557132 I | etcdserver: saved snapshot at index 645497
2016-04-12 19:38:47.557296 I | etcdserver: compacted raft log at 640497
2016-04-12 19:38:47.750111 I | fileutil: purged file /home/gyuho/data.etcd/member/snap/0000000000000003-000000000000284a.snap successfully
2016-04-12 19:38:47.751722 I | fileutil: purged file /home/gyuho/data.etcd/member/snap/0000000000000003-000000000000509c.snap successfully
2016-04-12 19:38:47.751777 I | fileutil: purged file /home/gyuho/data.etcd/member/snap/0000000000000003-0000000000007843.snap successfully
2016-04-12 19:38:47.751821 I | fileutil: purged file /home/gyuho/data.etcd/member/snap/0000000000000003-0000000000009f87.snap successfully
2016-04-12 19:38:47.751862 I | fileutil: purged file /home/gyuho/data.etcd/member/snap/0000000000000003-000000000000c73c.snap successfully
2016-04-12 19:38:47.751901 I | fileutil: purged file /home/gyuho/data.etcd/member/snap/0000000000000003-000000000000eea8.snap successfully
2016-04-12 19:38:47.751938 I | fileutil: purged file /home/gyuho/data.etcd/member/snap/0000000000000003-00000000000116cb.snap successfully
2016-04-12 19:38:47.751975 I | fileutil: purged file /home/gyuho/data.etcd/member/snap/0000000000000003-0000000000013e05.snap successfully
2016-04-12 19:38:47.752013 I | fileutil: purged file /home/gyuho/data.etcd/member/snap/0000000000000003-0000000000016573.snap successfully
2016-04-12 19:38:47.752050 I | fileutil: purged file /home/gyuho/data.etcd/member/snap/0000000000000003-0000000000018cd4.snap successfully
2016-04-12 19:38:47.752095 I | fileutil: purged file /home/gyuho/data.etcd/member/snap/0000000000000003-000000000001b4e5.snap successfully
2016-04-12 19:38:47.752135 I | fileutil: purged file /home/gyuho/data.etcd/member/snap/0000000000000003-000000000001dcc1.snap successfully
2016-04-12 19:38:47.752173 I | fileutil: purged file /home/gyuho/data.etcd/member/snap/0000000000000003-000000000002043f.snap successfully
2016-04-12 19:38:47.752211 I | fileutil: purged file /home/gyuho/data.etcd/member/snap/0000000000000003-0000000000022b86.snap successfully
2016-04-12 19:38:47.752251 I | fileutil: purged file /home/gyuho/data.etcd/member/snap/0000000000000003-00000000000252d7.snap successfully
2016-04-12 19:38:47.752298 I | fileutil: purged file /home/gyuho/data.etcd/member/snap/0000000000000003-0000000000027a3a.snap successfully
2016-04-12 19:38:47.752337 I | fileutil: purged file /home/gyuho/data.etcd/member/snap/0000000000000003-000000000002a1a1.snap successfully
2016-04-12 19:38:47.752375 I | fileutil: purged file /home/gyuho/data.etcd/member/snap/0000000000000003-000000000002c9cc.snap successfully
2016-04-12 19:38:47.752413 I | fileutil: purged file /home/gyuho/data.etcd/member/snap/0000000000000003-000000000002f189.snap successfully
2016-04-12 19:38:47.752452 I | fileutil: purged file /home/gyuho/data.etcd/member/snap/0000000000000003-00000000000318e4.snap successfully
2016-04-12 19:38:47.752490 I | fileutil: purged file /home/gyuho/data.etcd/member/snap/0000000000000003-00000000000340a8.snap successfully
2016-04-12 19:38:47.752527 I | fileutil: purged file /home/gyuho/data.etcd/member/snap/0000000000000003-00000000000367c0.snap successfully
2016-04-12 19:38:47.752565 I | fileutil: purged file /home/gyuho/data.etcd/member/snap/0000000000000003-0000000000038f1a.snap successfully
2016-04-12 19:38:47.752602 I | fileutil: purged file /home/gyuho/data.etcd/member/snap/0000000000000003-000000000003b63d.snap successfully
2016-04-12 19:38:47.752641 I | fileutil: purged file /home/gyuho/data.etcd/member/snap/0000000000000003-000000000003e3d5.snap successfully
2016-04-12 19:38:47.752701 I | fileutil: purged file /home/gyuho/data.etcd/member/snap/0000000000000003-0000000000041d4c.snap successfully
2016-04-12 19:38:47.752744 I | fileutil: purged file /home/gyuho/data.etcd/member/snap/0000000000000003-000000000004447e.snap successfully
2016-04-12 19:38:47.752782 I | fileutil: purged file /home/gyuho/data.etcd/member/snap/0000000000000003-0000000000046bc0.snap successfully
2016-04-12 19:38:47.752820 I | fileutil: purged file /home/gyuho/data.etcd/member/snap/0000000000000003-0000000000049346.snap successfully
2016-04-12 19:38:47.752860 I | fileutil: purged file /home/gyuho/data.etcd/member/snap/0000000000000003-000000000004baca.snap successfully
2016-04-12 19:38:47.752899 I | fileutil: purged file /home/gyuho/data.etcd/member/snap/0000000000000003-000000000004e249.snap successfully
2016-04-12 19:38:47.752937 I | fileutil: purged file /home/gyuho/data.etcd/member/snap/0000000000000003-00000000000509fb.snap successfully
2016-04-12 19:38:47.752975 I | fileutil: purged file /home/gyuho/data.etcd/member/snap/0000000000000003-0000000000053184.snap successfully
2016-04-12 19:38:47.753012 I | fileutil: purged file /home/gyuho/data.etcd/member/snap/0000000000000003-000000000005595e.snap successfully
2016-04-12 19:38:47.753050 I | fileutil: purged file /home/gyuho/data.etcd/member/snap/0000000000000003-00000000000583c4.snap successfully
2016-04-12 19:38:47.753087 I | fileutil: purged file /home/gyuho/data.etcd/member/snap/0000000000000003-000000000005ab40.snap successfully
2016-04-12 19:38:47.753126 I | fileutil: purged file /home/gyuho/data.etcd/member/snap/0000000000000003-000000000005d313.snap successfully
2016-04-12 19:38:47.753164 I | fileutil: purged file /home/gyuho/data.etcd/member/snap/0000000000000003-000000000005fa88.snap successfully
2016-04-12 19:38:47.753202 I | fileutil: purged file /home/gyuho/data.etcd/member/snap/0000000000000003-00000000000621bc.snap successfully
2016-04-12 19:38:47.753245 I | fileutil: purged file /home/gyuho/data.etcd/member/snap/0000000000000003-00000000000648d6.snap successfully
2016-04-12 19:38:47.753295 I | fileutil: purged file /home/gyuho/data.etcd/member/snap/0000000000000003-000000000006701f.snap successfully
2016-04-12 19:38:47.753337 I | fileutil: purged file /home/gyuho/data.etcd/member/snap/0000000000000003-0000000000069745.snap successfully
2016-04-12 19:38:47.753375 I | fileutil: purged file /home/gyuho/data.etcd/member/snap/0000000000000003-000000000006be6f.snap successfully
2016-04-12 19:38:47.753416 I | fileutil: purged file /home/gyuho/data.etcd/member/snap/0000000000000003-000000000006e676.snap successfully
2016-04-12 19:38:47.753455 I | fileutil: purged file /home/gyuho/data.etcd/member/snap/0000000000000003-0000000000070eab.snap successfully
2016-04-12 19:38:47.753492 I | fileutil: purged file /home/gyuho/data.etcd/member/snap/0000000000000003-00000000000735c5.snap successfully
2016-04-12 19:38:47.753528 I | fileutil: purged file /home/gyuho/data.etcd/member/snap/0000000000000003-0000000000075ceb.snap successfully
2016-04-12 19:38:47.753566 I | fileutil: purged file /home/gyuho/data.etcd/member/snap/0000000000000003-000000000007873b.snap successfully
2016-04-12 19:38:47.753605 I | fileutil: purged file /home/gyuho/data.etcd/member/snap/0000000000000003-000000000007af55.snap successfully
2016-04-12 19:38:47.753642 I | fileutil: purged file /home/gyuho/data.etcd/member/snap/0000000000000003-000000000007d692.snap successfully
2016-04-12 19:38:47.753679 I | fileutil: purged file /home/gyuho/data.etcd/member/snap/0000000000000003-000000000007fe8f.snap successfully
2016-04-12 19:38:47.753721 I | fileutil: purged file /home/gyuho/data.etcd/member/snap/0000000000000003-00000000000825af.snap successfully
2016-04-12 19:38:47.753758 I | fileutil: purged file /home/gyuho/data.etcd/member/snap/0000000000000003-0000000000084cf7.snap successfully
2016-04-12 19:38:47.753795 I | fileutil: purged file /home/gyuho/data.etcd/member/snap/0000000000000003-000000000008746a.snap successfully
2016-04-12 19:38:47.753836 I | fileutil: purged file /home/gyuho/data.etcd/member/snap/0000000000000003-0000000000089d5f.snap successfully
2016-04-12 19:38:47.753875 I | fileutil: purged file /home/gyuho/data.etcd/member/snap/0000000000000003-000000000008c522.snap successfully
2016-04-12 19:38:47.753908 I | fileutil: purged file /home/gyuho/data.etcd/member/snap/0000000000000003-000000000008ec64.snap successfully
2016-04-12 19:38:47.753948 I | fileutil: purged file /home/gyuho/data.etcd/member/snap/0000000000000003-0000000000091391.snap successfully
2016-04-12 19:38:47.887637 I | etcdserver: start to snapshot (applied: 655566, lastsnap: 645497)
2016-04-12 19:38:47.897331 I | etcdserver: saved snapshot at index 655566
2016-04-12 19:38:47.897544 I | etcdserver: compacted raft log at 650566
2016-04-12 19:38:48.280173 I | etcdserver: start to snapshot (applied: 665708, lastsnap: 655566)
2016-04-12 19:38:48.289100 I | etcdserver: saved snapshot at index 665708
2016-04-12 19:38:48.289237 I | etcdserver: compacted raft log at 660708
2016-04-12 19:38:48.601036 I | etcdserver: start to snapshot (applied: 675727, lastsnap: 665708)
2016-04-12 19:38:48.616998 I | etcdserver: saved snapshot at index 675727
2016-04-12 19:38:48.617229 I | etcdserver: compacted raft log at 670727
2016-04-12 19:38:48.981536 I | etcdserver: start to snapshot (applied: 685748, lastsnap: 675727)
2016-04-12 19:38:48.992849 I | etcdserver: saved snapshot at index 685748
2016-04-12 19:38:48.993401 I | etcdserver: compacted raft log at 680748
2016-04-12 19:38:49.257147 I | wal: segmented wal file /home/gyuho/data.etcd/member/wal/0000000000000004-00000000000a97fd.wal is created
2016-04-12 19:38:49.307179 I | etcdserver: start to snapshot (applied: 695953, lastsnap: 685748)
2016-04-12 19:38:49.322620 I | etcdserver: saved snapshot at index 695953
2016-04-12 19:38:49.323002 I | etcdserver: compacted raft log at 690953
2016-04-12 19:38:49.718328 I | etcdserver: start to snapshot (applied: 706044, lastsnap: 695953)
2016-04-12 19:38:49.730028 I | etcdserver: saved snapshot at index 706044
2016-04-12 19:38:49.730225 I | etcdserver: compacted raft log at 701044
2016-04-12 19:38:50.035728 I | etcdserver: start to snapshot (applied: 716200, lastsnap: 706044)
2016-04-12 19:38:50.056162 I | etcdserver: saved snapshot at index 716200
2016-04-12 19:38:50.056670 I | etcdserver: compacted raft log at 711200
2016-04-12 19:38:50.497569 I | etcdserver: start to snapshot (applied: 726230, lastsnap: 716200)
2016-04-12 19:38:50.503067 I | etcdserver: saved snapshot at index 726230
2016-04-12 19:38:50.503223 I | etcdserver: compacted raft log at 721230
2016-04-12 19:38:50.806587 I | etcdserver: start to snapshot (applied: 736321, lastsnap: 726230)
2016-04-12 19:38:50.820562 I | etcdserver: saved snapshot at index 736321
2016-04-12 19:38:50.820759 I | etcdserver: compacted raft log at 731321
2016-04-12 19:38:51.217485 I | etcdserver: start to snapshot (applied: 746384, lastsnap: 736321)
2016-04-12 19:38:51.229337 I | etcdserver: saved snapshot at index 746384
2016-04-12 19:38:51.229589 I | etcdserver: compacted raft log at 741384
2016-04-12 19:38:51.553705 I | etcdserver: start to snapshot (applied: 756438, lastsnap: 746384)
2016-04-12 19:38:51.571287 I | etcdserver: saved snapshot at index 756438
2016-04-12 19:38:51.571669 I | etcdserver: compacted raft log at 751438
2016-04-12 19:38:51.992729 I | etcdserver: start to snapshot (applied: 766465, lastsnap: 756438)
2016-04-12 19:38:52.008711 I | etcdserver: saved snapshot at index 766465
2016-04-12 19:38:52.008891 I | etcdserver: compacted raft log at 761465
2016-04-12 19:38:52.306108 I | etcdserver: start to snapshot (applied: 776546, lastsnap: 766465)
2016-04-12 19:38:52.322949 I | etcdserver: saved snapshot at index 776546
2016-04-12 19:38:52.323106 I | etcdserver: compacted raft log at 771546
2016-04-12 19:38:52.747475 I | etcdserver: start to snapshot (applied: 786617, lastsnap: 776546)
2016-04-12 19:38:52.758090 I | etcdserver: saved snapshot at index 786617
2016-04-12 19:38:52.758263 I | etcdserver: compacted raft log at 781617
2016-04-12 19:38:53.077959 I | etcdserver: start to snapshot (applied: 796735, lastsnap: 786617)
2016-04-12 19:38:53.087550 I | etcdserver: saved snapshot at index 796735
2016-04-12 19:38:53.087726 I | etcdserver: compacted raft log at 791735
2016-04-12 19:38:53.523464 I | etcdserver: start to snapshot (applied: 806954, lastsnap: 796735)
2016-04-12 19:38:53.534637 I | etcdserver: saved snapshot at index 806954
2016-04-12 19:38:53.534805 I | etcdserver: compacted raft log at 801954
2016-04-12 19:38:53.866748 I | etcdserver: start to snapshot (applied: 817043, lastsnap: 806954)
2016-04-12 19:38:53.874502 I | etcdserver: saved snapshot at index 817043
2016-04-12 19:38:53.874684 I | etcdserver: compacted raft log at 812043
2016-04-12 19:38:54.212835 I | etcdserver: start to snapshot (applied: 827119, lastsnap: 817043)
2016-04-12 19:38:54.221281 I | etcdserver: saved snapshot at index 827119
2016-04-12 19:38:54.221463 I | etcdserver: compacted raft log at 822119
2016-04-12 19:38:54.678136 I | etcdserver: start to snapshot (applied: 837530, lastsnap: 827119)
2016-04-12 19:38:54.691805 I | etcdserver: saved snapshot at index 837530
2016-04-12 19:38:54.692045 I | etcdserver: compacted raft log at 832530
2016-04-12 19:38:55.023608 I | etcdserver: start to snapshot (applied: 847586, lastsnap: 837530)
2016-04-12 19:38:55.035695 I | etcdserver: saved snapshot at index 847586
2016-04-12 19:38:55.035908 I | etcdserver: compacted raft log at 842586
2016-04-12 19:38:55.525126 I | etcdserver: start to snapshot (applied: 857664, lastsnap: 847586)
2016-04-12 19:38:55.534899 I | etcdserver: saved snapshot at index 857664
2016-04-12 19:38:55.535240 I | etcdserver: compacted raft log at 852664
2016-04-12 19:38:55.780712 I | wal: segmented wal file /home/gyuho/data.etcd/member/wal/0000000000000005-00000000000d3e82.wal is created
2016-04-12 19:38:55.791532 I | etcdserver: start to snapshot (applied: 867733, lastsnap: 857664)
2016-04-12 19:38:55.800986 I | etcdserver: saved snapshot at index 867733
2016-04-12 19:38:55.801234 I | etcdserver: compacted raft log at 862733
2016-04-12 19:38:56.279936 I | etcdserver: start to snapshot (applied: 877761, lastsnap: 867733)
2016-04-12 19:38:56.289591 I | etcdserver: saved snapshot at index 877761
2016-04-12 19:38:56.289743 I | etcdserver: compacted raft log at 872761
2016-04-12 19:38:56.620362 I | etcdserver: start to snapshot (applied: 887854, lastsnap: 877761)
2016-04-12 19:38:56.633382 I | etcdserver: saved snapshot at index 887854
2016-04-12 19:38:56.633625 I | etcdserver: compacted raft log at 882854
2016-04-12 19:38:56.964544 I | etcdserver: start to snapshot (applied: 897999, lastsnap: 887854)
2016-04-12 19:38:56.979498 I | etcdserver: saved snapshot at index 897999
2016-04-12 19:38:56.979686 I | etcdserver: compacted raft log at 892999
2016-04-12 19:38:57.454684 I | etcdserver: start to snapshot (applied: 908211, lastsnap: 897999)
2016-04-12 19:38:57.477141 I | etcdserver: saved snapshot at index 908211
2016-04-12 19:38:57.477319 I | etcdserver: compacted raft log at 903211
2016-04-12 19:38:57.823837 I | etcdserver: start to snapshot (applied: 918520, lastsnap: 908211)
2016-04-12 19:38:57.837502 I | etcdserver: saved snapshot at index 918520
2016-04-12 19:38:57.837683 I | etcdserver: compacted raft log at 913520
2016-04-12 19:38:58.199428 I | etcdserver: start to snapshot (applied: 928632, lastsnap: 918520)
2016-04-12 19:38:58.204742 I | etcdserver: saved snapshot at index 928632
2016-04-12 19:38:58.204924 I | etcdserver: compacted raft log at 923632
2016-04-12 19:38:58.591718 I | etcdserver: start to snapshot (applied: 938641, lastsnap: 928632)
2016-04-12 19:38:58.603881 I | etcdserver: saved snapshot at index 938641
2016-04-12 19:38:58.604057 I | etcdserver: compacted raft log at 933641
2016-04-12 19:38:58.942186 I | etcdserver: start to snapshot (applied: 948683, lastsnap: 938641)
2016-04-12 19:38:58.951636 I | etcdserver: saved snapshot at index 948683
2016-04-12 19:38:58.951865 I | etcdserver: compacted raft log at 943683
2016-04-12 19:38:59.452486 I | etcdserver: start to snapshot (applied: 958921, lastsnap: 948683)
2016-04-12 19:38:59.462941 I | etcdserver: saved snapshot at index 958921
2016-04-12 19:38:59.463149 I | etcdserver: compacted raft log at 953921
2016-04-12 19:38:59.836709 I | etcdserver: start to snapshot (applied: 969126, lastsnap: 958921)
2016-04-12 19:38:59.849640 I | etcdserver: saved snapshot at index 969126
2016-04-12 19:38:59.849794 I | etcdserver: compacted raft log at 964126
2016-04-12 19:39:00.115666 I | etcdserver: start to snapshot (applied: 979273, lastsnap: 969126)
2016-04-12 19:39:00.145830 I | etcdserver: saved snapshot at index 979273
2016-04-12 19:39:00.204473 I | etcdserver: compacted raft log at 974273
2016-04-12 19:39:00.621984 I | etcdserver: start to snapshot (applied: 989363, lastsnap: 979273)
2016-04-12 19:39:00.631307 I | etcdserver: saved snapshot at index 989363
2016-04-12 19:39:00.631479 I | etcdserver: compacted raft log at 984363
2016-04-12 19:39:00.993118 I | etcdserver: start to snapshot (applied: 999400, lastsnap: 989363)
2016-04-12 19:39:01.006691 I | etcdserver: saved snapshot at index 999400
2016-04-12 19:39:01.006897 I | etcdserver: compacted raft log at 994400
2016-04-12 19:39:01.371633 I | etcdserver: start to snapshot (applied: 1009402, lastsnap: 999400)
2016-04-12 19:39:01.377344 I | etcdserver: saved snapshot at index 1009402
2016-04-12 19:39:01.377548 I | etcdserver: compacted raft log at 1004402
2016-04-12 19:39:01.955018 I | etcdserver: start to snapshot (applied: 1019994, lastsnap: 1009402)
2016-04-12 19:39:01.963713 I | etcdserver: saved snapshot at index 1019994
2016-04-12 19:39:01.963999 I | etcdserver: compacted raft log at 1014994
2016-04-12 19:39:02.248757 I | etcdserver: start to snapshot (applied: 1030021, lastsnap: 1019994)
2016-04-12 19:39:02.265834 I | etcdserver: saved snapshot at index 1030021
2016-04-12 19:39:02.266067 I | etcdserver: compacted raft log at 1025021
2016-04-12 19:39:02.616720 I | etcdserver: start to snapshot (applied: 1040059, lastsnap: 1030021)
2016-04-12 19:39:02.627630 I | etcdserver: saved snapshot at index 1040059
2016-04-12 19:39:02.627786 I | etcdserver: compacted raft log at 1035059
2016-04-12 19:39:02.653517 I | wal: segmented wal file /home/gyuho/data.etcd/member/wal/0000000000000006-00000000000fe4c6.wal is created
2016-04-12 19:39:03.079519 I | etcdserver: start to snapshot (applied: 1050062, lastsnap: 1040059)
2016-04-12 19:39:03.093245 I | etcdserver: saved snapshot at index 1050062
2016-04-12 19:39:03.093409 I | etcdserver: compacted raft log at 1045062
2016-04-12 19:39:03.606101 I | etcdserver: start to snapshot (applied: 1061261, lastsnap: 1050062)
2016-04-12 19:39:03.615801 I | etcdserver: saved snapshot at index 1061261
2016-04-12 19:39:03.616152 I | etcdserver: compacted raft log at 1056261
2016-04-12 19:39:03.990299 I | etcdserver: start to snapshot (applied: 1071478, lastsnap: 1061261)
2016-04-12 19:39:04.000615 I | etcdserver: saved snapshot at index 1071478
2016-04-12 19:39:04.000815 I | etcdserver: compacted raft log at 1066478
2016-04-12 19:39:04.359362 I | etcdserver: start to snapshot (applied: 1081484, lastsnap: 1071478)
2016-04-12 19:39:04.377662 I | etcdserver: saved snapshot at index 1081484
2016-04-12 19:39:04.377900 I | etcdserver: compacted raft log at 1076484
2016-04-12 19:39:04.853308 I | etcdserver: start to snapshot (applied: 1091491, lastsnap: 1081484)
2016-04-12 19:39:04.871423 I | etcdserver: saved snapshot at index 1091491
2016-04-12 19:39:04.871635 I | etcdserver: compacted raft log at 1086491
2016-04-12 19:39:05.278856 I | etcdserver: start to snapshot (applied: 1101579, lastsnap: 1091491)
2016-04-12 19:39:05.292129 I | etcdserver: saved snapshot at index 1101579
2016-04-12 19:39:05.292277 I | etcdserver: compacted raft log at 1096579
2016-04-12 19:39:05.781076 I | etcdserver: start to snapshot (applied: 1111853, lastsnap: 1101579)
2016-04-12 19:39:05.789641 I | etcdserver: saved snapshot at index 1111853
2016-04-12 19:39:05.789811 I | etcdserver: compacted raft log at 1106853
2016-04-12 19:39:06.147945 I | etcdserver: start to snapshot (applied: 1121953, lastsnap: 1111853)
2016-04-12 19:39:06.163020 I | etcdserver: saved snapshot at index 1121953
2016-04-12 19:39:06.163191 I | etcdserver: compacted raft log at 1116953
2016-04-12 19:39:06.560637 I | etcdserver: start to snapshot (applied: 1132120, lastsnap: 1121953)
2016-04-12 19:39:06.613703 I | etcdserver: saved snapshot at index 1132120
2016-04-12 19:39:06.643280 I | etcdserver: compacted raft log at 1127120
2016-04-12 19:39:07.066598 I | etcdserver: start to snapshot (applied: 1142133, lastsnap: 1132120)
2016-04-12 19:39:07.076529 I | etcdserver: saved snapshot at index 1142133
2016-04-12 19:39:07.076739 I | etcdserver: compacted raft log at 1137133
2016-04-12 19:39:07.556137 I | etcdserver: start to snapshot (applied: 1152138, lastsnap: 1142133)
2016-04-12 19:39:07.560907 I | etcdserver: saved snapshot at index 1152138
2016-04-12 19:39:07.561056 I | etcdserver: compacted raft log at 1147138
2016-04-12 19:39:07.843820 I | etcdserver: start to snapshot (applied: 1162159, lastsnap: 1152138)
2016-04-12 19:39:07.874326 I | etcdserver: saved snapshot at index 1162159
2016-04-12 19:39:07.876531 I | etcdserver: compacted raft log at 1157159
2016-04-12 19:39:08.317999 I | etcdserver: start to snapshot (applied: 1172164, lastsnap: 1162159)
2016-04-12 19:39:08.329767 I | etcdserver: saved snapshot at index 1172164
2016-04-12 19:39:08.329950 I | etcdserver: compacted raft log at 1167164
2016-04-12 19:39:08.808526 I | etcdserver: start to snapshot (applied: 1182295, lastsnap: 1172164)
2016-04-12 19:39:08.821108 I | etcdserver: saved snapshot at index 1182295
2016-04-12 19:39:08.821312 I | etcdserver: compacted raft log at 1177295
2016-04-12 19:39:09.083601 I | etcdserver: start to snapshot (applied: 1192462, lastsnap: 1182295)
2016-04-12 19:39:09.097104 I | etcdserver: saved snapshot at index 1192462
2016-04-12 19:39:09.097318 I | etcdserver: compacted raft log at 1187462
2016-04-12 19:39:09.516527 I | etcdserver: start to snapshot (applied: 1202681, lastsnap: 1192462)
2016-04-12 19:39:09.538315 I | etcdserver: saved snapshot at index 1202681
2016-04-12 19:39:09.538519 I | etcdserver: compacted raft log at 1197681
2016-04-12 19:39:09.938436 I | etcdserver: start to snapshot (applied: 1212762, lastsnap: 1202681)
2016-04-12 19:39:09.945887 I | etcdserver: saved snapshot at index 1212762
2016-04-12 19:39:09.948487 I | etcdserver: compacted raft log at 1207762
2016-04-12 19:39:10.003340 I | wal: segmented wal file /home/gyuho/data.etcd/member/wal/0000000000000007-0000000000128b0b.wal is created
2016-04-12 19:39:10.223822 I | etcdserver: start to snapshot (applied: 1222848, lastsnap: 1212762)
2016-04-12 19:39:10.239724 I | etcdserver: saved snapshot at index 1222848
2016-04-12 19:39:10.239930 I | etcdserver: compacted raft log at 1217848
2016-04-12 19:39:10.643416 I | etcdserver: start to snapshot (applied: 1232887, lastsnap: 1222848)
2016-04-12 19:39:10.654166 I | etcdserver: saved snapshot at index 1232887
2016-04-12 19:39:10.654362 I | etcdserver: compacted raft log at 1227887
2016-04-12 19:39:11.166429 I | etcdserver: start to snapshot (applied: 1243321, lastsnap: 1232887)
2016-04-12 19:39:11.178865 I | etcdserver: saved snapshot at index 1243321
2016-04-12 19:39:11.179074 I | etcdserver: compacted raft log at 1238321
2016-04-12 19:39:11.405859 I | etcdserver: start to snapshot (applied: 1253437, lastsnap: 1243321)
2016-04-12 19:39:11.418829 I | etcdserver: saved snapshot at index 1253437
2016-04-12 19:39:11.419018 I | etcdserver: compacted raft log at 1248437
2016-04-12 19:39:11.881257 I | etcdserver: start to snapshot (applied: 1263584, lastsnap: 1253437)
2016-04-12 19:39:11.888379 I | etcdserver: saved snapshot at index 1263584
2016-04-12 19:39:11.888526 I | etcdserver: compacted raft log at 1258584
2016-04-12 19:39:12.425382 I | etcdserver: start to snapshot (applied: 1273645, lastsnap: 1263584)
2016-04-12 19:39:12.429772 I | etcdserver: saved snapshot at index 1273645
2016-04-12 19:39:12.429969 I | etcdserver: compacted raft log at 1268645
2016-04-12 19:39:12.647466 I | etcdserver: start to snapshot (applied: 1283661, lastsnap: 1273645)
2016-04-12 19:39:12.659157 I | etcdserver: saved snapshot at index 1283661
2016-04-12 19:39:12.659334 I | etcdserver: compacted raft log at 1278661
2016-04-12 19:39:13.143931 I | etcdserver: start to snapshot (applied: 1294084, lastsnap: 1283661)
2016-04-12 19:39:13.164092 I | etcdserver: saved snapshot at index 1294084
2016-04-12 19:39:13.164333 I | etcdserver: compacted raft log at 1289084
2016-04-12 19:39:13.541075 I | etcdserver: start to snapshot (applied: 1304177, lastsnap: 1294084)
2016-04-12 19:39:13.556072 I | etcdserver: saved snapshot at index 1304177
2016-04-12 19:39:13.556250 I | etcdserver: compacted raft log at 1299177
2016-04-12 19:39:13.907522 I | etcdserver: start to snapshot (applied: 1314278, lastsnap: 1304177)
2016-04-12 19:39:13.919367 I | etcdserver: saved snapshot at index 1314278
2016-04-12 19:39:13.919645 I | etcdserver: compacted raft log at 1309278
2016-04-12 19:39:14.320787 I | etcdserver: start to snapshot (applied: 1324313, lastsnap: 1314278)
2016-04-12 19:39:14.328622 I | etcdserver: saved snapshot at index 1324313
2016-04-12 19:39:14.328813 I | etcdserver: compacted raft log at 1319313
2016-04-12 19:39:14.807315 I | etcdserver: start to snapshot (applied: 1334373, lastsnap: 1324313)
2016-04-12 19:39:14.820452 I | etcdserver: saved snapshot at index 1334373
2016-04-12 19:39:14.820615 I | etcdserver: compacted raft log at 1329373
2016-04-12 19:39:15.257949 I | etcdserver: start to snapshot (applied: 1345311, lastsnap: 1334373)
2016-04-12 19:39:15.271184 I | etcdserver: saved snapshot at index 1345311
2016-04-12 19:39:15.271643 I | etcdserver: compacted raft log at 1340311
2016-04-12 19:39:15.634365 I | etcdserver: start to snapshot (applied: 1355341, lastsnap: 1345311)
2016-04-12 19:39:15.646305 I | etcdserver: saved snapshot at index 1355341
2016-04-12 19:39:15.646487 I | etcdserver: compacted raft log at 1350341
2016-04-12 19:39:16.148237 I | etcdserver: start to snapshot (applied: 1365660, lastsnap: 1355341)
2016-04-12 19:39:16.154953 I | etcdserver: saved snapshot at index 1365660
2016-04-12 19:39:16.155155 I | etcdserver: compacted raft log at 1360660
2016-04-12 19:39:16.415076 I | etcdserver: start to snapshot (applied: 1375665, lastsnap: 1365660)
2016-04-12 19:39:16.427571 I | etcdserver: saved snapshot at index 1375665
2016-04-12 19:39:16.427835 I | etcdserver: compacted raft log at 1370665
2016-04-12 19:39:16.922487 I | etcdserver: start to snapshot (applied: 1385743, lastsnap: 1375665)
2016-04-12 19:39:16.935642 I | etcdserver: saved snapshot at index 1385743
2016-04-12 19:39:16.935827 I | etcdserver: compacted raft log at 1380743
2016-04-12 19:39:17.001747 I | wal: segmented wal file /home/gyuho/data.etcd/member/wal/0000000000000008-0000000000153102.wal is created
2016-04-12 19:39:17.242835 I | etcdserver: start to snapshot (applied: 1395818, lastsnap: 1385743)
2016-04-12 19:39:17.330104 I | etcdserver: saved snapshot at index 1395818
2016-04-12 19:39:17.337723 I | etcdserver: compacted raft log at 1390818
2016-04-12 19:39:17.626196 I | etcdserver: start to snapshot (applied: 1406001, lastsnap: 1395818)
2016-04-12 19:39:17.643487 I | etcdserver: saved snapshot at index 1406001
2016-04-12 19:39:17.643759 I | etcdserver: compacted raft log at 1401001
2016-04-12 19:39:17.754317 I | fileutil: purged file /home/gyuho/data.etcd/member/snap/0000000000000003-0000000000093b5f.snap successfully
2016-04-12 19:39:17.754579 I | fileutil: purged file /home/gyuho/data.etcd/member/snap/0000000000000003-00000000000963e1.snap successfully
2016-04-12 19:39:17.754692 I | fileutil: purged file /home/gyuho/data.etcd/member/snap/0000000000000003-0000000000098b0a.snap successfully
2016-04-12 19:39:17.754743 I | fileutil: purged file /home/gyuho/data.etcd/member/snap/0000000000000003-000000000009b244.snap successfully
2016-04-12 19:39:17.754781 I | fileutil: purged file /home/gyuho/data.etcd/member/snap/0000000000000003-000000000009d979.snap successfully
2016-04-12 19:39:17.754810 I | fileutil: purged file /home/gyuho/data.etcd/member/snap/0000000000000003-00000000000a00ce.snap successfully
2016-04-12 19:39:17.754836 I | fileutil: purged file /home/gyuho/data.etcd/member/snap/0000000000000003-00000000000a286c.snap successfully
2016-04-12 19:39:17.754860 I | fileutil: purged file /home/gyuho/data.etcd/member/snap/0000000000000003-00000000000a4f8f.snap successfully
2016-04-12 19:39:17.754885 I | fileutil: purged file /home/gyuho/data.etcd/member/snap/0000000000000003-00000000000a76b4.snap successfully
2016-04-12 19:39:17.754911 I | fileutil: purged file /home/gyuho/data.etcd/member/snap/0000000000000003-00000000000a9e91.snap successfully
2016-04-12 19:39:17.754939 I | fileutil: purged file /home/gyuho/data.etcd/member/snap/0000000000000003-00000000000ac5fc.snap successfully
2016-04-12 19:39:17.754964 I | fileutil: purged file /home/gyuho/data.etcd/member/snap/0000000000000003-00000000000aeda8.snap successfully
2016-04-12 19:39:17.754989 I | fileutil: purged file /home/gyuho/data.etcd/member/snap/0000000000000003-00000000000b14d6.snap successfully
2016-04-12 19:39:17.755014 I | fileutil: purged file /home/gyuho/data.etcd/member/snap/0000000000000003-00000000000b3c41.snap successfully
2016-04-12 19:39:17.755038 I | fileutil: purged file /home/gyuho/data.etcd/member/snap/0000000000000003-00000000000b6390.snap successfully
2016-04-12 19:39:17.755108 I | fileutil: purged file /home/gyuho/data.etcd/member/snap/0000000000000003-00000000000b8ad6.snap successfully
2016-04-12 19:39:17.755146 I | fileutil: purged file /home/gyuho/data.etcd/member/snap/0000000000000003-00000000000bb201.snap successfully
2016-04-12 19:39:17.755186 I | fileutil: purged file /home/gyuho/data.etcd/member/snap/0000000000000003-00000000000bd962.snap successfully
2016-04-12 19:39:17.755226 I | fileutil: purged file /home/gyuho/data.etcd/member/snap/0000000000000003-00000000000c00b9.snap successfully
2016-04-12 19:39:17.755272 I | fileutil: purged file /home/gyuho/data.etcd/member/snap/0000000000000003-00000000000c283f.snap successfully
2016-04-12 19:39:17.755316 I | fileutil: purged file /home/gyuho/data.etcd/member/snap/0000000000000003-00000000000c502a.snap successfully
2016-04-12 19:39:17.755365 I | fileutil: purged file /home/gyuho/data.etcd/member/snap/0000000000000003-00000000000c7793.snap successfully
2016-04-12 19:39:17.755410 I | fileutil: purged file /home/gyuho/data.etcd/member/snap/0000000000000003-00000000000c9eef.snap successfully
2016-04-12 19:39:17.755453 I | fileutil: purged file /home/gyuho/data.etcd/member/snap/0000000000000003-00000000000cc79a.snap successfully
2016-04-12 19:39:17.755495 I | fileutil: purged file /home/gyuho/data.etcd/member/snap/0000000000000003-00000000000ceee2.snap successfully
2016-04-12 19:39:17.755539 I | fileutil: purged file /home/gyuho/data.etcd/member/snap/0000000000000003-00000000000d1640.snap successfully
2016-04-12 19:39:17.755592 I | fileutil: purged file /home/gyuho/data.etcd/member/snap/0000000000000003-00000000000d3d95.snap successfully
2016-04-12 19:39:17.755634 I | fileutil: purged file /home/gyuho/data.etcd/member/snap/0000000000000003-00000000000d64c1.snap successfully
2016-04-12 19:39:17.755689 I | fileutil: purged file /home/gyuho/data.etcd/member/snap/0000000000000003-00000000000d8c2e.snap successfully
2016-04-12 19:39:17.755751 I | fileutil: purged file /home/gyuho/data.etcd/member/snap/0000000000000003-00000000000db3cf.snap successfully
2016-04-12 19:39:17.755873 I | fileutil: purged file /home/gyuho/data.etcd/member/snap/0000000000000003-00000000000ddbb3.snap successfully
2016-04-12 19:39:17.755911 I | fileutil: purged file /home/gyuho/data.etcd/member/snap/0000000000000003-00000000000e03f8.snap successfully
2016-04-12 19:39:17.755955 I | fileutil: purged file /home/gyuho/data.etcd/member/snap/0000000000000003-00000000000e2b78.snap successfully
2016-04-12 19:39:17.755993 I | fileutil: purged file /home/gyuho/data.etcd/member/snap/0000000000000003-00000000000e5291.snap successfully
2016-04-12 19:39:17.756029 I | fileutil: purged file /home/gyuho/data.etcd/member/snap/0000000000000003-00000000000e79cb.snap successfully
2016-04-12 19:39:17.756065 I | fileutil: purged file /home/gyuho/data.etcd/member/snap/0000000000000003-00000000000ea1c9.snap successfully
2016-04-12 19:39:17.756099 I | fileutil: purged file /home/gyuho/data.etcd/member/snap/0000000000000003-00000000000ec9a6.snap successfully
2016-04-12 19:39:17.756132 I | fileutil: purged file /home/gyuho/data.etcd/member/snap/0000000000000003-00000000000ef149.snap successfully
2016-04-12 19:39:17.756160 I | fileutil: purged file /home/gyuho/data.etcd/member/snap/0000000000000003-00000000000f18b3.snap successfully
2016-04-12 19:39:17.756200 I | fileutil: purged file /home/gyuho/data.etcd/member/snap/0000000000000003-00000000000f3fe8.snap successfully
2016-04-12 19:39:17.756244 I | fileutil: purged file /home/gyuho/data.etcd/member/snap/0000000000000003-00000000000f66fa.snap successfully
2016-04-12 19:39:17.756288 I | fileutil: purged file /home/gyuho/data.etcd/member/snap/0000000000000003-00000000000f905a.snap successfully
2016-04-12 19:39:17.756329 I | fileutil: purged file /home/gyuho/data.etcd/member/snap/0000000000000003-00000000000fb785.snap successfully
2016-04-12 19:39:17.756369 I | fileutil: purged file /home/gyuho/data.etcd/member/snap/0000000000000003-00000000000fdebb.snap successfully
2016-04-12 19:39:17.756412 I | fileutil: purged file /home/gyuho/data.etcd/member/snap/0000000000000003-00000000001005ce.snap successfully
2016-04-12 19:39:17.757241 I | fileutil: purged file /home/gyuho/data.etcd/member/snap/0000000000000003-000000000010318d.snap successfully
2016-04-12 19:39:17.757371 I | fileutil: purged file /home/gyuho/data.etcd/member/snap/0000000000000003-0000000000105976.snap successfully
2016-04-12 19:39:17.757421 I | fileutil: purged file /home/gyuho/data.etcd/member/snap/0000000000000003-000000000010808c.snap successfully
2016-04-12 19:39:17.757503 I | fileutil: purged file /home/gyuho/data.etcd/member/snap/0000000000000003-000000000010a7a3.snap successfully
2016-04-12 19:39:17.757576 I | fileutil: purged file /home/gyuho/data.etcd/member/snap/0000000000000003-000000000010cf0b.snap successfully
2016-04-12 19:39:17.758048 I | fileutil: purged file /home/gyuho/data.etcd/member/snap/0000000000000003-000000000010f72d.snap successfully
2016-04-12 19:39:17.758102 I | fileutil: purged file /home/gyuho/data.etcd/member/snap/0000000000000003-0000000000111ea1.snap successfully
2016-04-12 19:39:17.758149 I | fileutil: purged file /home/gyuho/data.etcd/member/snap/0000000000000003-0000000000114658.snap successfully
2016-04-12 19:39:17.758195 I | fileutil: purged file /home/gyuho/data.etcd/member/snap/0000000000000003-0000000000116d75.snap successfully
2016-04-12 19:39:17.758243 I | fileutil: purged file /home/gyuho/data.etcd/member/snap/0000000000000003-000000000011948a.snap successfully
2016-04-12 19:39:17.758287 I | fileutil: purged file /home/gyuho/data.etcd/member/snap/0000000000000003-000000000011bbaf.snap successfully
2016-04-12 19:39:17.758331 I | fileutil: purged file /home/gyuho/data.etcd/member/snap/0000000000000003-000000000011e2c4.snap successfully
2016-04-12 19:39:17.758376 I | fileutil: purged file /home/gyuho/data.etcd/member/snap/0000000000000003-0000000000120a57.snap successfully
2016-04-12 19:39:17.758418 I | fileutil: purged file /home/gyuho/data.etcd/member/snap/0000000000000003-000000000012320e.snap successfully
2016-04-12 19:39:17.758475 I | fileutil: purged file /home/gyuho/data.etcd/member/snap/0000000000000003-00000000001259f9.snap successfully
2016-04-12 19:39:17.758528 I | fileutil: purged file /home/gyuho/data.etcd/member/snap/0000000000000003-000000000012815a.snap successfully
2016-04-12 19:39:17.758576 I | fileutil: purged file /home/gyuho/data.etcd/member/snap/0000000000000003-000000000012a8c0.snap successfully
2016-04-12 19:39:17.758614 I | fileutil: purged file /home/gyuho/data.etcd/member/snap/0000000000000003-000000000012cff7.snap successfully
2016-04-12 19:39:17.758648 I | fileutil: purged file /home/gyuho/data.etcd/member/snap/0000000000000003-000000000012f8b9.snap successfully
2016-04-12 19:39:17.758682 I | fileutil: purged file /home/gyuho/data.etcd/member/snap/0000000000000003-000000000013203d.snap successfully
2016-04-12 19:39:17.758715 I | fileutil: purged file /home/gyuho/data.etcd/member/snap/0000000000000003-00000000001347e0.snap successfully
2016-04-12 19:39:17.758918 I | fileutil: purged file /home/gyuho/data.etcd/member/snap/0000000000000003-0000000000136f2d.snap successfully
2016-04-12 19:39:17.758965 I | fileutil: purged file /home/gyuho/data.etcd/member/snap/0000000000000003-000000000013964d.snap successfully
2016-04-12 19:39:17.759004 I | fileutil: purged file /home/gyuho/data.etcd/member/snap/0000000000000003-000000000013bf04.snap successfully
2016-04-12 19:39:17.759047 I | fileutil: purged file /home/gyuho/data.etcd/member/snap/0000000000000003-000000000013e671.snap successfully
2016-04-12 19:39:17.759085 I | fileutil: purged file /home/gyuho/data.etcd/member/snap/0000000000000003-0000000000140de6.snap successfully
2016-04-12 19:39:17.759123 I | fileutil: purged file /home/gyuho/data.etcd/member/snap/0000000000000003-0000000000143519.snap successfully
2016-04-12 19:39:17.759161 I | fileutil: purged file /home/gyuho/data.etcd/member/snap/0000000000000003-0000000000145c65.snap successfully
2016-04-12 19:39:17.759205 I | fileutil: purged file /home/gyuho/data.etcd/member/snap/0000000000000003-000000000014871f.snap successfully
2016-04-12 19:39:17.759251 I | fileutil: purged file /home/gyuho/data.etcd/member/snap/0000000000000003-000000000014ae4d.snap successfully
2016-04-12 19:39:17.761192 I | fileutil: purged file /home/gyuho/data.etcd/member/wal/0000000000000000-0000000000000000.wal successfully
2016-04-12 19:39:17.771753 I | fileutil: purged file /home/gyuho/data.etcd/member/wal/0000000000000001-000000000002a645.wal successfully
2016-04-12 19:39:17.782929 I | fileutil: purged file /home/gyuho/data.etcd/member/wal/0000000000000002-0000000000054c13.wal successfully
2016-04-12 19:39:17.794297 I | fileutil: purged file /home/gyuho/data.etcd/member/wal/0000000000000003-000000000007f213.wal successfully
2016-04-12 19:39:18.077010 I | etcdserver: start to snapshot (applied: 1416477, lastsnap: 1406001)
2016-04-12 19:39:18.082512 I | etcdserver: saved snapshot at index 1416477
2016-04-12 19:39:18.082678 I | etcdserver: compacted raft log at 1411477
2016-04-12 19:39:18.377579 I | etcdserver: start to snapshot (applied: 1426519, lastsnap: 1416477)
2016-04-12 19:39:18.388444 I | etcdserver: saved snapshot at index 1426519
2016-04-12 19:39:18.388633 I | etcdserver: compacted raft log at 1421519
2016-04-12 19:39:18.801079 I | etcdserver: start to snapshot (applied: 1436576, lastsnap: 1426519)
2016-04-12 19:39:18.816485 I | etcdserver: saved snapshot at index 1436576
2016-04-12 19:39:18.816722 I | etcdserver: compacted raft log at 1431576
2016-04-12 19:39:19.111499 I | etcdserver: start to snapshot (applied: 1446582, lastsnap: 1436576)
2016-04-12 19:39:19.120089 I | etcdserver: saved snapshot at index 1446582
2016-04-12 19:39:19.120378 I | etcdserver: compacted raft log at 1441582
2016-04-12 19:39:19.630675 I | etcdserver: start to snapshot (applied: 1456738, lastsnap: 1446582)
2016-04-12 19:39:19.640799 I | etcdserver: saved snapshot at index 1456738
2016-04-12 19:39:19.640960 I | etcdserver: compacted raft log at 1451738
2016-04-12 19:39:20.073699 I | etcdserver: start to snapshot (applied: 1466799, lastsnap: 1456738)
2016-04-12 19:39:20.082644 I | etcdserver: saved snapshot at index 1466799
2016-04-12 19:39:20.082848 I | etcdserver: compacted raft log at 1461799
2016-04-12 19:39:20.408609 I | etcdserver: start to snapshot (applied: 1476883, lastsnap: 1466799)
2016-04-12 19:39:20.426624 I | etcdserver: saved snapshot at index 1476883
2016-04-12 19:39:20.426919 I | etcdserver: compacted raft log at 1471883
2016-04-12 19:39:20.832031 I | etcdserver: start to snapshot (applied: 1486939, lastsnap: 1476883)
2016-04-12 19:39:20.840966 I | etcdserver: saved snapshot at index 1486939
2016-04-12 19:39:20.841125 I | etcdserver: compacted raft log at 1481939
2016-04-12 19:39:21.188454 I | etcdserver: start to snapshot (applied: 1497005, lastsnap: 1486939)
2016-04-12 19:39:21.205973 I | etcdserver: saved snapshot at index 1497005
2016-04-12 19:39:21.206363 I | etcdserver: compacted raft log at 1492005
2016-04-12 19:39:21.615224 I | etcdserver: start to snapshot (applied: 1507030, lastsnap: 1497005)
2016-04-12 19:39:21.630242 I | etcdserver: saved snapshot at index 1507030
2016-04-12 19:39:21.630624 I | etcdserver: compacted raft log at 1502030
2016-04-12 19:39:21.948773 I | etcdserver: start to snapshot (applied: 1517131, lastsnap: 1507030)
2016-04-12 19:39:21.967388 I | etcdserver: saved snapshot at index 1517131
2016-04-12 19:39:21.967541 I | etcdserver: compacted raft log at 1512131
2016-04-12 19:39:22.376653 I | etcdserver: start to snapshot (applied: 1527224, lastsnap: 1517131)
2016-04-12 19:39:22.390247 I | etcdserver: saved snapshot at index 1527224
2016-04-12 19:39:22.390651 I | etcdserver: compacted raft log at 1522224
2016-04-12 19:39:22.728637 I | etcdserver: start to snapshot (applied: 1537227, lastsnap: 1527224)
2016-04-12 19:39:22.737268 I | etcdserver: saved snapshot at index 1537227
2016-04-12 19:39:22.737433 I | etcdserver: compacted raft log at 1532227
2016-04-12 19:39:23.148965 I | etcdserver: start to snapshot (applied: 1547335, lastsnap: 1537227)
2016-04-12 19:39:23.156384 I | etcdserver: saved snapshot at index 1547335
2016-04-12 19:39:23.156529 I | etcdserver: compacted raft log at 1542335
2016-04-12 19:39:23.640535 I | etcdserver: start to snapshot (applied: 1557504, lastsnap: 1547335)
2016-04-12 19:39:23.647493 I | etcdserver: saved snapshot at index 1557504
2016-04-12 19:39:23.647634 I | etcdserver: compacted raft log at 1552504
2016-04-12 19:39:23.765564 I | wal: segmented wal file /home/gyuho/data.etcd/member/wal/0000000000000009-000000000017d6fb.wal is created
2016-04-12 19:39:23.916521 I | etcdserver: start to snapshot (applied: 1567630, lastsnap: 1557504)
2016-04-12 19:39:23.926481 I | etcdserver: saved snapshot at index 1567630
2016-04-12 19:39:23.926899 I | etcdserver: compacted raft log at 1562630
2016-04-12 19:39:24.390142 I | etcdserver: start to snapshot (applied: 1577678, lastsnap: 1567630)
2016-04-12 19:39:24.403923 I | etcdserver: saved snapshot at index 1577678
2016-04-12 19:39:24.404098 I | etcdserver: compacted raft log at 1572678
2016-04-12 19:39:24.652512 I | etcdserver: start to snapshot (applied: 1587821, lastsnap: 1577678)
2016-04-12 19:39:24.661767 I | etcdserver: saved snapshot at index 1587821
2016-04-12 19:39:24.661940 I | etcdserver: compacted raft log at 1582821
2016-04-12 19:39:25.118485 I | etcdserver: start to snapshot (applied: 1597884, lastsnap: 1587821)
2016-04-12 19:39:25.134029 I | etcdserver: saved snapshot at index 1597884
2016-04-12 19:39:25.134202 I | etcdserver: compacted raft log at 1592884
2016-04-12 19:39:25.406788 I | etcdserver: start to snapshot (applied: 1608027, lastsnap: 1597884)
2016-04-12 19:39:25.415143 I | etcdserver: saved snapshot at index 1608027
2016-04-12 19:39:25.415345 I | etcdserver: compacted raft log at 1603027
2016-04-12 19:39:25.875562 I | etcdserver: start to snapshot (applied: 1618085, lastsnap: 1608027)
2016-04-12 19:39:25.888414 I | etcdserver: saved snapshot at index 1618085
2016-04-12 19:39:25.888586 I | etcdserver: compacted raft log at 1613085
2016-04-12 19:39:26.171742 I | etcdserver: start to snapshot (applied: 1628195, lastsnap: 1618085)
2016-04-12 19:39:26.175971 I | etcdserver: saved snapshot at index 1628195
2016-04-12 19:39:26.176135 I | etcdserver: compacted raft log at 1623195
2016-04-12 19:39:26.634641 I | etcdserver: start to snapshot (applied: 1638578, lastsnap: 1628195)
2016-04-12 19:39:26.648427 I | etcdserver: saved snapshot at index 1638578
2016-04-12 19:39:26.648669 I | etcdserver: compacted raft log at 1633578
2016-04-12 19:39:26.932333 I | etcdserver: start to snapshot (applied: 1648686, lastsnap: 1638578)
2016-04-12 19:39:26.946104 I | etcdserver: saved snapshot at index 1648686
2016-04-12 19:39:26.946258 I | etcdserver: compacted raft log at 1643686
2016-04-12 19:39:27.385763 I | etcdserver: start to snapshot (applied: 1658806, lastsnap: 1648686)
2016-04-12 19:39:27.398994 I | etcdserver: saved snapshot at index 1658806
2016-04-12 19:39:27.399169 I | etcdserver: compacted raft log at 1653806
2016-04-12 19:39:27.675811 I | etcdserver: start to snapshot (applied: 1669011, lastsnap: 1658806)
2016-04-12 19:39:27.687754 I | etcdserver: saved snapshot at index 1669011
2016-04-12 19:39:27.687957 I | etcdserver: compacted raft log at 1664011
2016-04-12 19:39:28.119652 I | etcdserver: start to snapshot (applied: 1679055, lastsnap: 1669011)
2016-04-12 19:39:28.133307 I | etcdserver: saved snapshot at index 1679055
2016-04-12 19:39:28.133485 I | etcdserver: compacted raft log at 1674055
2016-04-12 19:39:28.430776 I | etcdserver: start to snapshot (applied: 1689107, lastsnap: 1679055)
2016-04-12 19:39:28.443699 I | etcdserver: saved snapshot at index 1689107
2016-04-12 19:39:28.443953 I | etcdserver: compacted raft log at 1684107
2016-04-12 19:39:28.971581 I | etcdserver: start to snapshot (applied: 1699118, lastsnap: 1689107)
2016-04-12 19:39:28.982799 I | etcdserver: saved snapshot at index 1699118
2016-04-12 19:39:28.983024 I | etcdserver: compacted raft log at 1694118
2016-04-12 19:39:29.211007 I | etcdserver: start to snapshot (applied: 1709155, lastsnap: 1699118)
2016-04-12 19:39:29.223163 I | etcdserver: saved snapshot at index 1709155
2016-04-12 19:39:29.223330 I | etcdserver: compacted raft log at 1704155
2016-04-12 19:39:29.797469 I | etcdserver: start to snapshot (applied: 1719162, lastsnap: 1709155)
2016-04-12 19:39:29.805605 I | etcdserver: saved snapshot at index 1719162
2016-04-12 19:39:29.805944 I | etcdserver: compacted raft log at 1714162
2016-04-12 19:39:30.015862 I | etcdserver: start to snapshot (applied: 1729167, lastsnap: 1719162)
2016-04-12 19:39:30.027918 I | etcdserver: saved snapshot at index 1729167
2016-04-12 19:39:30.028108 I | etcdserver: compacted raft log at 1724167
2016-04-12 19:39:30.361206 I | wal: segmented wal file /home/gyuho/data.etcd/member/wal/000000000000000a-00000000001a7da7.wal is created
2016-04-12 19:39:30.616232 I | etcdserver: start to snapshot (applied: 1739247, lastsnap: 1729167)
2016-04-12 19:39:30.629505 I | etcdserver: saved snapshot at index 1739247
2016-04-12 19:39:30.630925 I | etcdserver: compacted raft log at 1734247
2016-04-12 19:39:30.811518 I | etcdserver: start to snapshot (applied: 1749318, lastsnap: 1739247)
2016-04-12 19:39:30.826775 I | etcdserver: saved snapshot at index 1749318
2016-04-12 19:39:30.827021 I | etcdserver: compacted raft log at 1744318
2016-04-12 19:39:31.246101 I | etcdserver: start to snapshot (applied: 1759325, lastsnap: 1749318)
2016-04-12 19:39:31.370529 I | etcdserver: saved snapshot at index 1759325
2016-04-12 19:39:31.410733 I | etcdserver: compacted raft log at 1754325
2016-04-12 19:39:31.629602 I | etcdserver: start to snapshot (applied: 1769330, lastsnap: 1759325)
2016-04-12 19:39:31.638249 I | etcdserver: saved snapshot at index 1769330
2016-04-12 19:39:31.638491 I | etcdserver: compacted raft log at 1764330
2016-04-12 19:39:32.051696 I | etcdserver: start to snapshot (applied: 1779409, lastsnap: 1769330)
2016-04-12 19:39:32.066900 I | etcdserver: saved snapshot at index 1779409
2016-04-12 19:39:32.067072 I | etcdserver: compacted raft log at 1774409
2016-04-12 19:39:32.445840 I | etcdserver: start to snapshot (applied: 1789796, lastsnap: 1779409)
2016-04-12 19:39:32.460764 I | etcdserver: saved snapshot at index 1789796
2016-04-12 19:39:32.460962 I | etcdserver: compacted raft log at 1784796
2016-04-12 19:39:32.846135 I | etcdserver: start to snapshot (applied: 1799930, lastsnap: 1789796)
2016-04-12 19:39:32.854876 I | etcdserver: saved snapshot at index 1799930
2016-04-12 19:39:32.855132 I | etcdserver: compacted raft log at 1794930
2016-04-12 19:39:33.281754 I | etcdserver: start to snapshot (applied: 1811579, lastsnap: 1799930)
2016-04-12 19:39:33.287122 I | etcdserver: saved snapshot at index 1811579
2016-04-12 19:39:33.287424 I | etcdserver: compacted raft log at 1806579
2016-04-12 19:39:33.640354 I | etcdserver: start to snapshot (applied: 1821587, lastsnap: 1811579)
2016-04-12 19:39:33.650598 I | etcdserver: saved snapshot at index 1821587
2016-04-12 19:39:33.650761 I | etcdserver: compacted raft log at 1816587
2016-04-12 19:39:34.090334 I | etcdserver: start to snapshot (applied: 1832625, lastsnap: 1821587)
2016-04-12 19:39:34.102766 I | etcdserver: saved snapshot at index 1832625
2016-04-12 19:39:34.103308 I | etcdserver: compacted raft log at 1827625
2016-04-12 19:39:34.469944 I | etcdserver: start to snapshot (applied: 1842944, lastsnap: 1832625)
2016-04-12 19:39:34.479172 I | etcdserver: saved snapshot at index 1842944
2016-04-12 19:39:34.479441 I | etcdserver: compacted raft log at 1837944
2016-04-12 19:39:34.954428 I | etcdserver: start to snapshot (applied: 1852947, lastsnap: 1842944)
2016-04-12 19:39:34.972955 I | etcdserver: saved snapshot at index 1852947
2016-04-12 19:39:34.973812 I | etcdserver: compacted raft log at 1847947
2016-04-12 19:39:35.280111 I | etcdserver: start to snapshot (applied: 1863129, lastsnap: 1852947)
2016-04-12 19:39:35.294236 I | etcdserver: saved snapshot at index 1863129
2016-04-12 19:39:35.294427 I | etcdserver: compacted raft log at 1858129
2016-04-12 19:39:35.602700 I | etcdserver: start to snapshot (applied: 1873235, lastsnap: 1863129)
2016-04-12 19:39:35.615720 I | etcdserver: saved snapshot at index 1873235
2016-04-12 19:39:35.615895 I | etcdserver: compacted raft log at 1868235
2016-04-12 19:39:36.099272 I | etcdserver: start to snapshot (applied: 1883301, lastsnap: 1873235)
2016-04-12 19:39:36.110534 I | etcdserver: saved snapshot at index 1883301
2016-04-12 19:39:36.110721 I | etcdserver: compacted raft log at 1878301
2016-04-12 19:39:36.420453 I | etcdserver: start to snapshot (applied: 1893316, lastsnap: 1883301)
2016-04-12 19:39:36.433956 I | etcdserver: saved snapshot at index 1893316
2016-04-12 19:39:36.434148 I | etcdserver: compacted raft log at 1888316
2016-04-12 19:39:36.935180 I | etcdserver: start to snapshot (applied: 1903538, lastsnap: 1893316)
2016-04-12 19:39:36.942132 I | etcdserver: saved snapshot at index 1903538
2016-04-12 19:39:36.942311 I | etcdserver: compacted raft log at 1898538
2016-04-12 19:39:37.098090 I | wal: segmented wal file /home/gyuho/data.etcd/member/wal/000000000000000b-00000000001d23e9.wal is created
2016-04-12 19:39:37.231969 I | etcdserver: start to snapshot (applied: 1913602, lastsnap: 1903538)
2016-04-12 19:39:37.246844 I | etcdserver: saved snapshot at index 1913602
2016-04-12 19:39:37.247048 I | etcdserver: compacted raft log at 1908602
2016-04-12 19:39:37.929762 I | etcdserver: start to snapshot (applied: 1923881, lastsnap: 1913602)
2016-04-12 19:39:37.948029 I | etcdserver: saved snapshot at index 1923881
2016-04-12 19:39:37.948281 I | etcdserver: compacted raft log at 1918881
2016-04-12 19:39:38.124710 I | etcdserver: start to snapshot (applied: 1933910, lastsnap: 1923881)
2016-04-12 19:39:38.148088 I | etcdserver: saved snapshot at index 1933910
2016-04-12 19:39:38.148368 I | etcdserver: compacted raft log at 1928910
2016-04-12 19:39:38.407841 I | etcdserver: start to snapshot (applied: 1943934, lastsnap: 1933910)
2016-04-12 19:39:38.421153 I | etcdserver: saved snapshot at index 1943934
2016-04-12 19:39:38.421331 I | etcdserver: compacted raft log at 1938934
2016-04-12 19:39:39.039189 I | etcdserver: start to snapshot (applied: 1954217, lastsnap: 1943934)
2016-04-12 19:39:39.058971 I | etcdserver: saved snapshot at index 1954217
2016-04-12 19:39:39.059223 I | etcdserver: compacted raft log at 1949217
2016-04-12 19:39:39.269938 I | etcdserver: start to snapshot (applied: 1964316, lastsnap: 1954217)
2016-04-12 19:39:39.279424 I | etcdserver: saved snapshot at index 1964316
2016-04-12 19:39:39.279614 I | etcdserver: compacted raft log at 1959316
2016-04-12 19:39:39.780479 I | etcdserver: start to snapshot (applied: 1974332, lastsnap: 1964316)
2016-04-12 19:39:39.878535 I | etcdserver: saved snapshot at index 1974332
2016-04-12 19:39:39.893036 I | etcdserver: compacted raft log at 1969332
2016-04-12 19:39:40.154325 I | etcdserver: start to snapshot (applied: 1984527, lastsnap: 1974332)
2016-04-12 19:39:40.166299 I | etcdserver: saved snapshot at index 1984527
2016-04-12 19:39:40.166675 I | etcdserver: compacted raft log at 1979527
2016-04-12 19:39:40.603631 I | etcdserver: start to snapshot (applied: 1994605, lastsnap: 1984527)
2016-04-12 19:39:40.616436 I | etcdserver: saved snapshot at index 1994605
2016-04-12 19:39:40.616601 I | etcdserver: compacted raft log at 1989605
2016-04-12 19:39:47.380575 E | rafthttp: failed to dial ec572e55c25f926a on stream MsgApp v2 (dial tcp 10.240.0.7:2380: getsockopt: connection refused)
2016-04-12 19:39:47.380631 I | rafthttp: the connection with ec572e55c25f926a became inactive
2016-04-12 19:39:47.759578 I | fileutil: purged file /home/gyuho/data.etcd/member/snap/0000000000000003-000000000014d69c.snap successfully
2016-04-12 19:39:47.759633 I | fileutil: purged file /home/gyuho/data.etcd/member/snap/0000000000000003-000000000014fdb1.snap successfully
2016-04-12 19:39:47.759665 I | fileutil: purged file /home/gyuho/data.etcd/member/snap/0000000000000003-000000000015250f.snap successfully
2016-04-12 19:39:47.759694 I | fileutil: purged file /home/gyuho/data.etcd/member/snap/0000000000000003-0000000000154c6a.snap successfully
2016-04-12 19:39:47.759723 I | fileutil: purged file /home/gyuho/data.etcd/member/snap/0000000000000003-0000000000157431.snap successfully
2016-04-12 19:39:47.759770 I | fileutil: purged file /home/gyuho/data.etcd/member/snap/0000000000000003-0000000000159d1d.snap successfully
2016-04-12 19:39:47.759804 I | fileutil: purged file /home/gyuho/data.etcd/member/snap/0000000000000003-000000000015c457.snap successfully
2016-04-12 19:39:47.759830 I | fileutil: purged file /home/gyuho/data.etcd/member/snap/0000000000000003-000000000015eba0.snap successfully
2016-04-12 19:39:47.759856 I | fileutil: purged file /home/gyuho/data.etcd/member/snap/0000000000000003-00000000001612b6.snap successfully
2016-04-12 19:39:47.759881 I | fileutil: purged file /home/gyuho/data.etcd/member/snap/0000000000000003-0000000000163a62.snap successfully
2016-04-12 19:39:47.759906 I | fileutil: purged file /home/gyuho/data.etcd/member/snap/0000000000000003-00000000001661af.snap successfully
2016-04-12 19:39:47.759942 I | fileutil: purged file /home/gyuho/data.etcd/member/snap/0000000000000003-0000000000168913.snap successfully
2016-04-12 19:39:47.759968 I | fileutil: purged file /home/gyuho/data.etcd/member/snap/0000000000000003-000000000016b05b.snap successfully
2016-04-12 19:39:47.759994 I | fileutil: purged file /home/gyuho/data.etcd/member/snap/0000000000000003-000000000016d7ad.snap successfully
2016-04-12 19:39:47.760020 I | fileutil: purged file /home/gyuho/data.etcd/member/snap/0000000000000003-000000000016fed6.snap successfully
2016-04-12 19:39:47.760044 I | fileutil: purged file /home/gyuho/data.etcd/member/snap/0000000000000003-000000000017264b.snap successfully
2016-04-12 19:39:47.760069 I | fileutil: purged file /home/gyuho/data.etcd/member/snap/0000000000000003-0000000000174db8.snap successfully
2016-04-12 19:39:47.760092 I | fileutil: purged file /home/gyuho/data.etcd/member/snap/0000000000000003-00000000001774cb.snap successfully
2016-04-12 19:39:47.760139 I | fileutil: purged file /home/gyuho/data.etcd/member/snap/0000000000000003-0000000000179c47.snap successfully
2016-04-12 19:39:47.760172 I | fileutil: purged file /home/gyuho/data.etcd/member/snap/0000000000000003-000000000017c400.snap successfully
2016-04-12 19:39:47.760199 I | fileutil: purged file /home/gyuho/data.etcd/member/snap/0000000000000003-000000000017eb8e.snap successfully
2016-04-12 19:39:47.760225 I | fileutil: purged file /home/gyuho/data.etcd/member/snap/0000000000000003-00000000001812ce.snap successfully
2016-04-12 19:39:47.760254 I | fileutil: purged file /home/gyuho/data.etcd/member/snap/0000000000000003-0000000000183a6d.snap successfully
2016-04-12 19:39:47.760279 I | fileutil: purged file /home/gyuho/data.etcd/member/snap/0000000000000003-00000000001861bc.snap successfully
2016-04-12 19:39:47.760308 I | fileutil: purged file /home/gyuho/data.etcd/member/snap/0000000000000003-000000000018895b.snap successfully
2016-04-12 19:39:47.760333 I | fileutil: purged file /home/gyuho/data.etcd/member/snap/0000000000000003-000000000018b0a5.snap successfully
2016-04-12 19:39:47.760357 I | fileutil: purged file /home/gyuho/data.etcd/member/snap/0000000000000003-000000000018d823.snap successfully
2016-04-12 19:39:47.760382 I | fileutil: purged file /home/gyuho/data.etcd/member/snap/0000000000000003-00000000001900b2.snap successfully
2016-04-12 19:39:47.760407 I | fileutil: purged file /home/gyuho/data.etcd/member/snap/0000000000000003-000000000019282e.snap successfully
2016-04-12 19:39:47.760432 I | fileutil: purged file /home/gyuho/data.etcd/member/snap/0000000000000003-0000000000194fb6.snap successfully
2016-04-12 19:39:47.760458 I | fileutil: purged file /home/gyuho/data.etcd/member/snap/0000000000000003-0000000000197793.snap successfully
2016-04-12 19:39:47.760482 I | fileutil: purged file /home/gyuho/data.etcd/member/snap/0000000000000003-0000000000199ecf.snap successfully
2016-04-12 19:39:47.760522 I | fileutil: purged file /home/gyuho/data.etcd/member/snap/0000000000000003-000000000019c613.snap successfully
2016-04-12 19:39:47.760554 I | fileutil: purged file /home/gyuho/data.etcd/member/snap/0000000000000003-000000000019ed2e.snap successfully
2016-04-12 19:39:47.760580 I | fileutil: purged file /home/gyuho/data.etcd/member/snap/0000000000000003-00000000001a1463.snap successfully
2016-04-12 19:39:47.760605 I | fileutil: purged file /home/gyuho/data.etcd/member/snap/0000000000000003-00000000001a3b7a.snap successfully
2016-04-12 19:39:47.760629 I | fileutil: purged file /home/gyuho/data.etcd/member/snap/0000000000000003-00000000001a628f.snap successfully
2016-04-12 19:39:47.760655 I | fileutil: purged file /home/gyuho/data.etcd/member/snap/0000000000000003-00000000001a89ef.snap successfully
2016-04-12 19:39:47.760700 I | fileutil: purged file /home/gyuho/data.etcd/member/snap/0000000000000003-00000000001ab146.snap successfully
2016-04-12 19:39:47.760741 I | fileutil: purged file /home/gyuho/data.etcd/member/snap/0000000000000003-00000000001ad85d.snap successfully
2016-04-12 19:39:47.760770 I | fileutil: purged file /home/gyuho/data.etcd/member/snap/0000000000000003-00000000001aff72.snap successfully
2016-04-12 19:39:47.760800 I | fileutil: purged file /home/gyuho/data.etcd/member/snap/0000000000000003-00000000001b26d1.snap successfully
2016-04-12 19:39:47.760831 I | fileutil: purged file /home/gyuho/data.etcd/member/snap/0000000000000003-00000000001b4f64.snap successfully
2016-04-12 19:39:47.760857 I | fileutil: purged file /home/gyuho/data.etcd/member/snap/0000000000000003-00000000001b76fa.snap successfully
2016-04-12 19:39:47.760882 I | fileutil: purged file /home/gyuho/data.etcd/member/snap/0000000000000003-00000000001ba47b.snap successfully
2016-04-12 19:39:47.760906 I | fileutil: purged file /home/gyuho/data.etcd/member/snap/0000000000000003-00000000001bcb93.snap successfully
2016-04-12 19:39:47.760931 I | fileutil: purged file /home/gyuho/data.etcd/member/snap/0000000000000003-00000000001bf6b1.snap successfully
2016-04-12 19:39:47.760955 I | fileutil: purged file /home/gyuho/data.etcd/member/snap/0000000000000003-00000000001c1f00.snap successfully
2016-04-12 19:39:47.760980 I | fileutil: purged file /home/gyuho/data.etcd/member/snap/0000000000000003-00000000001c4613.snap successfully
2016-04-12 19:39:47.761005 I | fileutil: purged file /home/gyuho/data.etcd/member/snap/0000000000000003-00000000001c6dd9.snap successfully
2016-04-12 19:39:47.761029 I | fileutil: purged file /home/gyuho/data.etcd/member/snap/0000000000000003-00000000001c9553.snap successfully
2016-04-12 19:39:47.761053 I | fileutil: purged file /home/gyuho/data.etcd/member/snap/0000000000000003-00000000001cbca5.snap successfully
2016-04-12 19:39:47.761082 I | fileutil: purged file /home/gyuho/data.etcd/member/snap/0000000000000003-00000000001ce3c4.snap successfully
2016-04-12 19:39:47.761110 I | fileutil: purged file /home/gyuho/data.etcd/member/snap/0000000000000003-00000000001d0bb2.snap successfully
2016-04-12 19:39:47.761138 I | fileutil: purged file /home/gyuho/data.etcd/member/snap/0000000000000003-00000000001d3302.snap successfully
2016-04-12 19:39:47.761167 I | fileutil: purged file /home/gyuho/data.etcd/member/snap/0000000000000003-00000000001d5b29.snap successfully
2016-04-12 19:39:47.761192 I | fileutil: purged file /home/gyuho/data.etcd/member/snap/0000000000000003-00000000001d8256.snap successfully
2016-04-12 19:39:47.761216 I | fileutil: purged file /home/gyuho/data.etcd/member/snap/0000000000000003-00000000001da97e.snap successfully
2016-04-12 19:39:47.801211 I | fileutil: purged file /home/gyuho/data.etcd/member/wal/0000000000000004-00000000000a97fd.wal successfully
2016-04-12 19:39:47.808081 I | fileutil: purged file /home/gyuho/data.etcd/member/wal/0000000000000005-00000000000d3e82.wal successfully
2016-04-12 19:39:47.814763 I | fileutil: purged file /home/gyuho/data.etcd/member/wal/0000000000000006-00000000000fe4c6.wal successfully
2016-04-12 19:39:48.381293 E | rafthttp: failed to dial cfc6e2e1de0e7922 on stream MsgApp v2 (dial tcp 10.240.0.13:2380: getsockopt: connection refused)
2016-04-12 19:39:48.381331 I | rafthttp: the connection with cfc6e2e1de0e7922 became inactive
2016-04-12 19:39:48.735427 I | raft: f9e96ef8c0d0e08c is starting a new election at term 3
2016-04-12 19:39:48.735501 I | raft: f9e96ef8c0d0e08c became candidate at term 4
2016-04-12 19:39:48.735514 I | raft: f9e96ef8c0d0e08c received vote from f9e96ef8c0d0e08c at term 4
2016-04-12 19:39:48.735533 I | raft: f9e96ef8c0d0e08c [logterm: 3, index: 2000190] sent vote request to cfc6e2e1de0e7922 at term 4
2016-04-12 19:39:48.735550 I | raft: f9e96ef8c0d0e08c [logterm: 3, index: 2000190] sent vote request to ec572e55c25f926a at term 4
2016-04-12 19:39:48.735576 I | raft: raft.node: f9e96ef8c0d0e08c lost leader ec572e55c25f926a at term 4
2016-04-12 19:39:49.279762 N | osutil: received terminated signal, shutting down...
