2016-04-12 19:38:15.652008 I | etcdmain: etcd Version: 2.3.0+git
2016-04-12 19:38:15.652079 I | etcdmain: Git SHA: Not provided (use ./build instead of go build)
2016-04-12 19:38:15.652087 I | etcdmain: Go Version: go1.6
2016-04-12 19:38:15.652093 I | etcdmain: Go OS/Arch: linux/amd64
2016-04-12 19:38:15.652103 I | etcdmain: setting maximum number of CPUs to 8, total number of available CPUs is 8
2016-04-12 19:38:15.652170 I | etcdmain: listening for peers on http://10.240.0.7:2380
2016-04-12 19:38:15.652208 I | etcdmain: listening for client requests on 10.240.0.7:2379
2016-04-12 19:38:15.658109 I | etcdserver: name = etcd-1
2016-04-12 19:38:15.658139 I | etcdserver: data dir = /home/gyuho/data.etcd
2016-04-12 19:38:15.658147 I | etcdserver: member dir = /home/gyuho/data.etcd/member
2016-04-12 19:38:15.658153 I | etcdserver: heartbeat = 100ms
2016-04-12 19:38:15.658159 I | etcdserver: election = 1000ms
2016-04-12 19:38:15.658165 I | etcdserver: snapshot count = 10000
2016-04-12 19:38:15.658176 I | etcdserver: advertise client URLs = http://10.240.0.7:2379
2016-04-12 19:38:15.658198 I | etcdserver: initial advertise peer URLs = http://10.240.0.7:2380
2016-04-12 19:38:15.658214 I | etcdserver: initial cluster = etcd-1=http://10.240.0.7:2380,etcd-2=http://10.240.0.13:2380,etcd-3=http://10.240.0.14:2380
2016-04-12 19:38:15.661184 I | etcdserver: starting member ec572e55c25f926a in cluster 14edf9cb39308b6e
2016-04-12 19:38:15.661251 I | raft: ec572e55c25f926a became follower at term 0
2016-04-12 19:38:15.661267 I | raft: newRaft ec572e55c25f926a [peers: [], term: 0, commit: 0, applied: 0, lastindex: 0, lastterm: 0]
2016-04-12 19:38:15.661274 I | raft: ec572e55c25f926a became follower at term 1
2016-04-12 19:38:15.676938 I | etcdserver: starting server... [version: 2.3.0+git, cluster version: to_be_decided]
2016-04-12 19:38:15.677778 E | etcdmain: failed to notify systemd for readiness: No socket
2016-04-12 19:38:15.677797 E | etcdmain: forgot to set Type=notify in systemd service file?
2016-04-12 19:38:15.678390 N | etcdmain: serving insecure client requests on 10.240.0.7:2379, this is strongly discouraged!
2016-04-12 19:38:15.679307 N | etcdserver: added member cfc6e2e1de0e7922 [http://10.240.0.13:2380] to cluster 14edf9cb39308b6e
2016-04-12 19:38:15.679409 N | etcdserver: added local member ec572e55c25f926a [http://10.240.0.7:2380] to cluster 14edf9cb39308b6e
2016-04-12 19:38:15.679482 N | etcdserver: added member f9e96ef8c0d0e08c [http://10.240.0.14:2380] to cluster 14edf9cb39308b6e
2016-04-12 19:38:15.861639 I | raft: ec572e55c25f926a is starting a new election at term 1
2016-04-12 19:38:15.861746 I | raft: ec572e55c25f926a became candidate at term 2
2016-04-12 19:38:15.861757 I | raft: ec572e55c25f926a received vote from ec572e55c25f926a at term 2
2016-04-12 19:38:15.861769 I | raft: ec572e55c25f926a [logterm: 1, index: 3] sent vote request to cfc6e2e1de0e7922 at term 2
2016-04-12 19:38:15.861780 I | raft: ec572e55c25f926a [logterm: 1, index: 3] sent vote request to f9e96ef8c0d0e08c at term 2
2016-04-12 19:38:16.678792 I | rafthttp: the connection with cfc6e2e1de0e7922 became active
2016-04-12 19:38:16.865722 I | raft: ec572e55c25f926a [logterm: 1, index: 3, vote: ec572e55c25f926a] rejected vote from cfc6e2e1de0e7922 [logterm: 1, index: 3] at term 2
2016-04-12 19:38:17.561731 I | raft: ec572e55c25f926a is starting a new election at term 2
2016-04-12 19:38:17.561811 I | raft: ec572e55c25f926a became candidate at term 3
2016-04-12 19:38:17.561821 I | raft: ec572e55c25f926a received vote from ec572e55c25f926a at term 3
2016-04-12 19:38:17.561833 I | raft: ec572e55c25f926a [logterm: 1, index: 3] sent vote request to f9e96ef8c0d0e08c at term 3
2016-04-12 19:38:17.561843 I | raft: ec572e55c25f926a [logterm: 1, index: 3] sent vote request to cfc6e2e1de0e7922 at term 3
2016-04-12 19:38:17.565274 I | raft: ec572e55c25f926a received vote from cfc6e2e1de0e7922 at term 3
2016-04-12 19:38:17.565292 I | raft: ec572e55c25f926a [quorum:2] has received 2 votes and 0 vote rejections
2016-04-12 19:38:17.565327 I | raft: ec572e55c25f926a became leader at term 3
2016-04-12 19:38:17.565353 I | raft: raft.node: ec572e55c25f926a elected leader ec572e55c25f926a at term 3
2016-04-12 19:38:17.568889 W | etcdserver: failed to reach the peerURL(http://10.240.0.14:2380) of member f9e96ef8c0d0e08c (Get http://10.240.0.14:2380/version: dial tcp 10.240.0.14:2380: getsockopt: connection refused)
2016-04-12 19:38:17.568914 W | etcdserver: cannot get the version of member f9e96ef8c0d0e08c (Get http://10.240.0.14:2380/version: dial tcp 10.240.0.14:2380: getsockopt: connection refused)
2016-04-12 19:38:17.568967 I | etcdserver: setting up the initial cluster version to 2.2
2016-04-12 19:38:17.569014 I | etcdserver: published {Name:etcd-1 ClientURLs:[http://10.240.0.7:2379]} to cluster 14edf9cb39308b6e
2016-04-12 19:38:17.570437 N | membership: set the initial cluster version to 2.2
2016-04-12 19:38:17.678955 I | v2http: enabled capabilities for version 2.2.0
2016-04-12 19:38:17.679483 I | rafthttp: the connection with f9e96ef8c0d0e08c became active
2016-04-12 19:38:21.571152 I | etcdserver: updating the cluster version from 2.2 to 2.3
2016-04-12 19:38:21.573112 N | membership: updated the cluster version from 2.2 to 2.3
2016-04-12 19:38:21.680317 I | v2http: enabled capabilities for version 2.3.0
2016-04-12 19:38:24.008567 I | etcdserver: start to snapshot (applied: 10314, lastsnap: 0)
2016-04-12 19:38:24.024356 I | etcdserver: saved snapshot at index 10314
2016-04-12 19:38:24.028393 I | etcdserver: compacted raft log at 5314
2016-04-12 19:38:24.315217 I | etcdserver: start to snapshot (applied: 20636, lastsnap: 10314)
2016-04-12 19:38:24.330687 I | etcdserver: saved snapshot at index 20636
2016-04-12 19:38:24.330959 I | etcdserver: compacted raft log at 15636
2016-04-12 19:38:24.618675 I | etcdserver: start to snapshot (applied: 30787, lastsnap: 20636)
2016-04-12 19:38:24.632190 I | etcdserver: saved snapshot at index 30787
2016-04-12 19:38:24.635351 I | etcdserver: compacted raft log at 25787
2016-04-12 19:38:24.933326 I | etcdserver: start to snapshot (applied: 40839, lastsnap: 30787)
2016-04-12 19:38:24.943701 I | etcdserver: saved snapshot at index 40839
2016-04-12 19:38:24.944141 I | etcdserver: compacted raft log at 35839
2016-04-12 19:38:25.245851 I | etcdserver: start to snapshot (applied: 51004, lastsnap: 40839)
2016-04-12 19:38:25.264391 I | etcdserver: saved snapshot at index 51004
2016-04-12 19:38:25.264658 I | etcdserver: compacted raft log at 46004
2016-04-12 19:38:25.612564 I | etcdserver: start to snapshot (applied: 61096, lastsnap: 51004)
2016-04-12 19:38:25.621426 I | etcdserver: saved snapshot at index 61096
2016-04-12 19:38:25.621778 I | etcdserver: compacted raft log at 56096
2016-04-12 19:38:25.970275 I | etcdserver: start to snapshot (applied: 71379, lastsnap: 61096)
2016-04-12 19:38:25.975800 I | etcdserver: saved snapshot at index 71379
2016-04-12 19:38:25.975972 I | etcdserver: compacted raft log at 66379
2016-04-12 19:38:26.315397 I | etcdserver: start to snapshot (applied: 81413, lastsnap: 71379)
2016-04-12 19:38:26.322731 I | etcdserver: saved snapshot at index 81413
2016-04-12 19:38:26.322941 I | etcdserver: compacted raft log at 76413
2016-04-12 19:38:26.662006 I | etcdserver: start to snapshot (applied: 91627, lastsnap: 81413)
2016-04-12 19:38:26.671144 I | etcdserver: saved snapshot at index 91627
2016-04-12 19:38:26.671380 I | etcdserver: compacted raft log at 86627
2016-04-12 19:38:26.996623 I | etcdserver: start to snapshot (applied: 101736, lastsnap: 91627)
2016-04-12 19:38:27.004751 I | etcdserver: saved snapshot at index 101736
2016-04-12 19:38:27.005009 I | etcdserver: compacted raft log at 96736
2016-04-12 19:38:27.346534 I | etcdserver: start to snapshot (applied: 111738, lastsnap: 101736)
2016-04-12 19:38:27.358836 I | etcdserver: saved snapshot at index 111738
2016-04-12 19:38:27.359108 I | etcdserver: compacted raft log at 106738
2016-04-12 19:38:27.703883 I | etcdserver: start to snapshot (applied: 122049, lastsnap: 111738)
2016-04-12 19:38:27.711873 I | etcdserver: saved snapshot at index 122049
2016-04-12 19:38:27.712029 I | etcdserver: compacted raft log at 117049
2016-04-12 19:38:28.044365 I | etcdserver: start to snapshot (applied: 132159, lastsnap: 122049)
2016-04-12 19:38:28.052364 I | etcdserver: saved snapshot at index 132159
2016-04-12 19:38:28.052547 I | etcdserver: compacted raft log at 127159
2016-04-12 19:38:28.382602 I | etcdserver: start to snapshot (applied: 142242, lastsnap: 132159)
2016-04-12 19:38:28.394026 I | etcdserver: saved snapshot at index 142242
2016-04-12 19:38:28.394211 I | etcdserver: compacted raft log at 137242
2016-04-12 19:38:28.713001 I | etcdserver: start to snapshot (applied: 152279, lastsnap: 142242)
2016-04-12 19:38:28.720991 I | etcdserver: saved snapshot at index 152279
2016-04-12 19:38:28.721197 I | etcdserver: compacted raft log at 147279
2016-04-12 19:38:29.075615 I | etcdserver: start to snapshot (applied: 162362, lastsnap: 152279)
2016-04-12 19:38:29.087713 I | etcdserver: saved snapshot at index 162362
2016-04-12 19:38:29.087942 I | etcdserver: compacted raft log at 157362
2016-04-12 19:38:29.435880 I | etcdserver: start to snapshot (applied: 172379, lastsnap: 162362)
2016-04-12 19:38:29.447527 I | etcdserver: saved snapshot at index 172379
2016-04-12 19:38:29.447821 I | etcdserver: compacted raft log at 167379
2016-04-12 19:38:29.463980 I | wal: segmented wal file /home/gyuho/data.etcd/member/wal/0000000000000001-000000000002a645.wal is created
2016-04-12 19:38:29.799631 I | etcdserver: start to snapshot (applied: 182421, lastsnap: 172379)
2016-04-12 19:38:29.807836 I | etcdserver: saved snapshot at index 182421
2016-04-12 19:38:29.808478 I | etcdserver: compacted raft log at 177421
2016-04-12 19:38:30.154118 I | etcdserver: start to snapshot (applied: 192562, lastsnap: 182421)
2016-04-12 19:38:30.164170 I | etcdserver: saved snapshot at index 192562
2016-04-12 19:38:30.164505 I | etcdserver: compacted raft log at 187562
2016-04-12 19:38:30.511061 I | etcdserver: start to snapshot (applied: 202771, lastsnap: 192562)
2016-04-12 19:38:30.518792 I | etcdserver: saved snapshot at index 202771
2016-04-12 19:38:30.519103 I | etcdserver: compacted raft log at 197771
2016-04-12 19:38:30.907021 I | etcdserver: start to snapshot (applied: 212915, lastsnap: 202771)
2016-04-12 19:38:30.918639 I | etcdserver: saved snapshot at index 212915
2016-04-12 19:38:30.918819 I | etcdserver: compacted raft log at 207915
2016-04-12 19:38:30.943263 I | rafthttp: start to send database snapshot [index: 213787, to cfc6e2e1de0e7922]...
2016-04-12 19:38:31.302025 I | etcdserver: wrote database snapshot out [total bytes: 97460224]
2016-04-12 19:38:31.891338 I | rafthttp: database snapshot [index: 213787, to: cfc6e2e1de0e7922] sent out successfully
2016-04-12 19:38:32.717044 E | rafthttp: failed to write cfc6e2e1de0e7922 on stream MsgApp v2 (write tcp 10.240.0.7:2380->10.240.0.13:45938: write: broken pipe)
2016-04-12 19:38:32.717085 I | rafthttp: the connection with cfc6e2e1de0e7922 became inactive
2016-04-12 19:38:32.719830 I | rafthttp: the connection with cfc6e2e1de0e7922 became active
2016-04-12 19:38:36.674726 I | wal: segmented wal file /home/gyuho/data.etcd/member/wal/0000000000000002-0000000000054bcf.wal is created
2016-04-12 19:38:42.977569 I | wal: segmented wal file /home/gyuho/data.etcd/member/wal/0000000000000003-000000000007f213.wal is created
2016-04-12 19:38:45.714474 I | fileutil: purged file /home/gyuho/data.etcd/member/snap/0000000000000003-000000000000284a.snap successfully
2016-04-12 19:38:45.714558 I | fileutil: purged file /home/gyuho/data.etcd/member/snap/0000000000000003-000000000000509c.snap successfully
2016-04-12 19:38:45.714605 I | fileutil: purged file /home/gyuho/data.etcd/member/snap/0000000000000003-0000000000007843.snap successfully
2016-04-12 19:38:45.714660 I | fileutil: purged file /home/gyuho/data.etcd/member/snap/0000000000000003-0000000000009f87.snap successfully
2016-04-12 19:38:45.714703 I | fileutil: purged file /home/gyuho/data.etcd/member/snap/0000000000000003-000000000000c73c.snap successfully
2016-04-12 19:38:45.714742 I | fileutil: purged file /home/gyuho/data.etcd/member/snap/0000000000000003-000000000000eea8.snap successfully
2016-04-12 19:38:45.714789 I | fileutil: purged file /home/gyuho/data.etcd/member/snap/0000000000000003-00000000000116d3.snap successfully
2016-04-12 19:38:45.714826 I | fileutil: purged file /home/gyuho/data.etcd/member/snap/0000000000000003-0000000000013e05.snap successfully
2016-04-12 19:38:45.714922 I | fileutil: purged file /home/gyuho/data.etcd/member/snap/0000000000000003-00000000000165eb.snap successfully
2016-04-12 19:38:45.714966 I | fileutil: purged file /home/gyuho/data.etcd/member/snap/0000000000000003-0000000000018d68.snap successfully
2016-04-12 19:38:45.715032 I | fileutil: purged file /home/gyuho/data.etcd/member/snap/0000000000000003-000000000001b47a.snap successfully
2016-04-12 19:38:45.715112 I | fileutil: purged file /home/gyuho/data.etcd/member/snap/0000000000000003-000000000001dcc1.snap successfully
2016-04-12 19:38:45.715226 I | fileutil: purged file /home/gyuho/data.etcd/member/snap/0000000000000003-000000000002043f.snap successfully
2016-04-12 19:38:45.715301 I | fileutil: purged file /home/gyuho/data.etcd/member/snap/0000000000000003-0000000000022ba2.snap successfully
2016-04-12 19:38:45.715385 I | fileutil: purged file /home/gyuho/data.etcd/member/snap/0000000000000003-00000000000252d7.snap successfully
2016-04-12 19:38:45.715432 I | fileutil: purged file /home/gyuho/data.etcd/member/snap/0000000000000003-0000000000027a3a.snap successfully
2016-04-12 19:38:49.177023 I | wal: segmented wal file /home/gyuho/data.etcd/member/wal/0000000000000004-00000000000a97f1.wal is created
2016-04-12 19:38:55.704026 I | wal: segmented wal file /home/gyuho/data.etcd/member/wal/0000000000000005-00000000000d3e0f.wal is created
2016-04-12 19:38:56.183950 W | etcdserver: failed to send out heartbeat on time (deadline exceeded for 20.465864ms)
2016-04-12 19:38:56.183989 W | etcdserver: server is likely overloaded
2016-04-12 19:38:56.184003 W | etcdserver: failed to send out heartbeat on time (deadline exceeded for 20.537461ms)
2016-04-12 19:38:56.184014 W | etcdserver: server is likely overloaded
2016-04-12 19:38:57.166494 W | etcdserver: failed to send out heartbeat on time (deadline exceeded for 2.979807ms)
2016-04-12 19:38:57.166527 W | etcdserver: server is likely overloaded
2016-04-12 19:38:57.166540 W | etcdserver: failed to send out heartbeat on time (deadline exceeded for 3.039881ms)
2016-04-12 19:38:57.166550 W | etcdserver: server is likely overloaded
2016-04-12 19:38:58.269647 W | etcdserver: failed to send out heartbeat on time (deadline exceeded for 6.785186ms)
2016-04-12 19:38:58.269683 W | etcdserver: server is likely overloaded
2016-04-12 19:38:58.269699 W | etcdserver: failed to send out heartbeat on time (deadline exceeded for 6.865725ms)
2016-04-12 19:38:58.269710 W | etcdserver: server is likely overloaded
2016-04-12 19:38:59.365221 W | etcdserver: failed to send out heartbeat on time (deadline exceeded for 2.86079ms)
2016-04-12 19:38:59.365251 W | etcdserver: server is likely overloaded
2016-04-12 19:38:59.365260 W | etcdserver: failed to send out heartbeat on time (deadline exceeded for 2.920975ms)
2016-04-12 19:38:59.365266 W | etcdserver: server is likely overloaded
2016-04-12 19:39:01.895854 I | etcdserver: start to snapshot (applied: 1021178, lastsnap: 212915)
2016-04-12 19:39:01.926782 I | etcdserver: saved snapshot at index 1021178
2016-04-12 19:39:01.926978 I | etcdserver: compacted raft log at 1016178
2016-04-12 19:39:02.209846 I | etcdserver: start to snapshot (applied: 1031230, lastsnap: 1021178)
2016-04-12 19:39:02.229894 I | etcdserver: saved snapshot at index 1031230
2016-04-12 19:39:02.230108 I | etcdserver: compacted raft log at 1026230
2016-04-12 19:39:02.575371 I | wal: segmented wal file /home/gyuho/data.etcd/member/wal/0000000000000006-00000000000fe462.wal is created
2016-04-12 19:39:02.599194 I | etcdserver: start to snapshot (applied: 1041488, lastsnap: 1031230)
2016-04-12 19:39:02.611547 I | etcdserver: saved snapshot at index 1041488
2016-04-12 19:39:02.612620 I | etcdserver: compacted raft log at 1036488
2016-04-12 19:39:03.081946 I | etcdserver: start to snapshot (applied: 1051906, lastsnap: 1041488)
2016-04-12 19:39:03.090309 I | etcdserver: saved snapshot at index 1051906
2016-04-12 19:39:03.090563 I | etcdserver: compacted raft log at 1046906
2016-04-12 19:39:03.524727 I | etcdserver: start to snapshot (applied: 1061945, lastsnap: 1051906)
2016-04-12 19:39:03.536461 I | etcdserver: saved snapshot at index 1061945
2016-04-12 19:39:03.536855 I | etcdserver: compacted raft log at 1056945
2016-04-12 19:39:03.942396 I | etcdserver: start to snapshot (applied: 1071966, lastsnap: 1061945)
2016-04-12 19:39:03.959114 I | etcdserver: saved snapshot at index 1071966
2016-04-12 19:39:03.959301 I | etcdserver: compacted raft log at 1066966
2016-04-12 19:39:04.333815 I | etcdserver: start to snapshot (applied: 1082335, lastsnap: 1071966)
2016-04-12 19:39:04.381038 I | etcdserver: saved snapshot at index 1082335
2016-04-12 19:39:04.419736 I | etcdserver: compacted raft log at 1077335
2016-04-12 19:39:04.803963 I | etcdserver: start to snapshot (applied: 1092357, lastsnap: 1082335)
2016-04-12 19:39:04.826791 I | etcdserver: saved snapshot at index 1092357
2016-04-12 19:39:04.827027 I | etcdserver: compacted raft log at 1087357
2016-04-12 19:39:05.065819 W | etcdserver: failed to send out heartbeat on time (deadline exceeded for 910.063µs)
2016-04-12 19:39:05.065871 W | etcdserver: server is likely overloaded
2016-04-12 19:39:05.065880 W | etcdserver: failed to send out heartbeat on time (deadline exceeded for 987.369µs)
2016-04-12 19:39:05.065886 W | etcdserver: server is likely overloaded
2016-04-12 19:39:05.258259 I | etcdserver: start to snapshot (applied: 1102681, lastsnap: 1092357)
2016-04-12 19:39:05.266661 I | etcdserver: saved snapshot at index 1102681
2016-04-12 19:39:05.266821 I | etcdserver: compacted raft log at 1097681
2016-04-12 19:39:05.731920 I | etcdserver: start to snapshot (applied: 1112724, lastsnap: 1102681)
2016-04-12 19:39:05.744746 I | etcdserver: saved snapshot at index 1112724
2016-04-12 19:39:05.744958 I | etcdserver: compacted raft log at 1107724
2016-04-12 19:39:06.111219 I | etcdserver: start to snapshot (applied: 1122941, lastsnap: 1112724)
2016-04-12 19:39:06.122527 I | etcdserver: saved snapshot at index 1122941
2016-04-12 19:39:06.122732 I | etcdserver: compacted raft log at 1117941
2016-04-12 19:39:06.525023 I | etcdserver: start to snapshot (applied: 1133039, lastsnap: 1122941)
2016-04-12 19:39:06.534658 I | etcdserver: saved snapshot at index 1133039
2016-04-12 19:39:06.534815 I | etcdserver: compacted raft log at 1128039
2016-04-12 19:39:07.037731 I | etcdserver: start to snapshot (applied: 1143310, lastsnap: 1133039)
2016-04-12 19:39:07.052462 I | etcdserver: saved snapshot at index 1143310
2016-04-12 19:39:07.052668 I | etcdserver: compacted raft log at 1138310
2016-04-12 19:39:07.471538 W | etcdserver: failed to send out heartbeat on time (deadline exceeded for 9.828719ms)
2016-04-12 19:39:07.471592 W | etcdserver: server is likely overloaded
2016-04-12 19:39:07.471611 W | etcdserver: failed to send out heartbeat on time (deadline exceeded for 9.930687ms)
2016-04-12 19:39:07.471624 W | etcdserver: server is likely overloaded
2016-04-12 19:39:07.547641 I | etcdserver: start to snapshot (applied: 1153514, lastsnap: 1143310)
2016-04-12 19:39:07.557613 I | etcdserver: saved snapshot at index 1153514
2016-04-12 19:39:07.557758 I | etcdserver: compacted raft log at 1148514
2016-04-12 19:39:07.811234 I | etcdserver: start to snapshot (applied: 1163525, lastsnap: 1153514)
2016-04-12 19:39:07.827012 I | etcdserver: saved snapshot at index 1163525
2016-04-12 19:39:07.827211 I | etcdserver: compacted raft log at 1158525
2016-04-12 19:39:08.284149 I | etcdserver: start to snapshot (applied: 1173558, lastsnap: 1163525)
2016-04-12 19:39:08.305277 I | etcdserver: saved snapshot at index 1173558
2016-04-12 19:39:08.305456 I | etcdserver: compacted raft log at 1168558
2016-04-12 19:39:08.770273 I | etcdserver: start to snapshot (applied: 1183569, lastsnap: 1173558)
2016-04-12 19:39:08.784014 I | etcdserver: saved snapshot at index 1183569
2016-04-12 19:39:08.784267 I | etcdserver: compacted raft log at 1178569
2016-04-12 19:39:09.056820 I | etcdserver: start to snapshot (applied: 1193627, lastsnap: 1183569)
2016-04-12 19:39:09.066565 I | etcdserver: saved snapshot at index 1193627
2016-04-12 19:39:09.066751 I | etcdserver: compacted raft log at 1188627
2016-04-12 19:39:09.477415 I | etcdserver: start to snapshot (applied: 1203784, lastsnap: 1193627)
2016-04-12 19:39:09.489242 I | etcdserver: saved snapshot at index 1203784
2016-04-12 19:39:09.489553 I | etcdserver: compacted raft log at 1198784
2016-04-12 19:39:09.907879 I | etcdserver: start to snapshot (applied: 1213897, lastsnap: 1203784)
2016-04-12 19:39:09.915926 I | etcdserver: saved snapshot at index 1213897
2016-04-12 19:39:09.916090 I | etcdserver: compacted raft log at 1208897
2016-04-12 19:39:09.924918 I | wal: segmented wal file /home/gyuho/data.etcd/member/wal/0000000000000007-0000000000128a99.wal is created
2016-04-12 19:39:10.175112 I | etcdserver: start to snapshot (applied: 1223922, lastsnap: 1213897)
2016-04-12 19:39:10.189339 I | etcdserver: saved snapshot at index 1223922
2016-04-12 19:39:10.189502 I | etcdserver: compacted raft log at 1218922
2016-04-12 19:39:10.607102 I | etcdserver: start to snapshot (applied: 1233954, lastsnap: 1223922)
2016-04-12 19:39:10.619816 I | etcdserver: saved snapshot at index 1233954
2016-04-12 19:39:10.620040 I | etcdserver: compacted raft log at 1228954
2016-04-12 19:39:11.071782 I | etcdserver: start to snapshot (applied: 1244328, lastsnap: 1233954)
2016-04-12 19:39:11.080901 I | etcdserver: saved snapshot at index 1244328
2016-04-12 19:39:11.081113 I | etcdserver: compacted raft log at 1239328
2016-04-12 19:39:11.515120 I | etcdserver: start to snapshot (applied: 1254357, lastsnap: 1244328)
2016-04-12 19:39:11.526145 I | etcdserver: saved snapshot at index 1254357
2016-04-12 19:39:11.526511 I | etcdserver: compacted raft log at 1249357
2016-04-12 19:39:11.841002 I | etcdserver: start to snapshot (applied: 1264561, lastsnap: 1254357)
2016-04-12 19:39:11.849267 I | etcdserver: saved snapshot at index 1264561
2016-04-12 19:39:11.849587 I | etcdserver: compacted raft log at 1259561
2016-04-12 19:39:12.253442 I | etcdserver: start to snapshot (applied: 1274602, lastsnap: 1264561)
2016-04-12 19:39:12.263145 I | etcdserver: saved snapshot at index 1274602
2016-04-12 19:39:12.263355 I | etcdserver: compacted raft log at 1269602
2016-04-12 19:39:12.605564 I | etcdserver: start to snapshot (applied: 1284695, lastsnap: 1274602)
2016-04-12 19:39:12.621182 I | etcdserver: saved snapshot at index 1284695
2016-04-12 19:39:12.621383 I | etcdserver: compacted raft log at 1279695
2016-04-12 19:39:13.051310 I | etcdserver: start to snapshot (applied: 1294761, lastsnap: 1284695)
2016-04-12 19:39:13.060462 I | etcdserver: saved snapshot at index 1294761
2016-04-12 19:39:13.060642 I | etcdserver: compacted raft log at 1289761
2016-04-12 19:39:13.495915 I | etcdserver: start to snapshot (applied: 1304813, lastsnap: 1294761)
2016-04-12 19:39:13.503416 I | etcdserver: saved snapshot at index 1304813
2016-04-12 19:39:13.503584 I | etcdserver: compacted raft log at 1299813
2016-04-12 19:39:13.836291 I | etcdserver: start to snapshot (applied: 1314820, lastsnap: 1304813)
2016-04-12 19:39:13.847254 I | etcdserver: saved snapshot at index 1314820
2016-04-12 19:39:13.847429 I | etcdserver: compacted raft log at 1309820
2016-04-12 19:39:14.260223 I | etcdserver: start to snapshot (applied: 1324879, lastsnap: 1314820)
2016-04-12 19:39:14.276378 I | etcdserver: saved snapshot at index 1324879
2016-04-12 19:39:14.276556 I | etcdserver: compacted raft log at 1319879
2016-04-12 19:39:14.664560 W | etcdserver: failed to send out heartbeat on time (deadline exceeded for 883.794µs)
2016-04-12 19:39:14.664614 W | etcdserver: server is likely overloaded
2016-04-12 19:39:14.664634 W | etcdserver: failed to send out heartbeat on time (deadline exceeded for 973.988µs)
2016-04-12 19:39:14.664646 W | etcdserver: server is likely overloaded
2016-04-12 19:39:14.759813 I | etcdserver: start to snapshot (applied: 1335008, lastsnap: 1324879)
2016-04-12 19:39:14.775477 I | etcdserver: saved snapshot at index 1335008
2016-04-12 19:39:14.775666 I | etcdserver: compacted raft log at 1330008
2016-04-12 19:39:15.053033 I | etcdserver: start to snapshot (applied: 1345137, lastsnap: 1335008)
2016-04-12 19:39:15.057758 I | etcdserver: saved snapshot at index 1345137
2016-04-12 19:39:15.057902 I | etcdserver: compacted raft log at 1340137
2016-04-12 19:39:15.570592 I | etcdserver: start to snapshot (applied: 1355218, lastsnap: 1345137)
2016-04-12 19:39:15.583443 I | etcdserver: saved snapshot at index 1355218
2016-04-12 19:39:15.583628 I | etcdserver: compacted raft log at 1350218
2016-04-12 19:39:15.704228 I | fileutil: purged file /home/gyuho/data.etcd/member/wal/0000000000000000-0000000000000000.wal successfully
2016-04-12 19:39:15.714835 I | fileutil: purged file /home/gyuho/data.etcd/member/wal/0000000000000001-000000000002a645.wal successfully
2016-04-12 19:39:15.718246 I | fileutil: purged file /home/gyuho/data.etcd/member/snap/0000000000000003-000000000002a15b.snap successfully
2016-04-12 19:39:15.718336 I | fileutil: purged file /home/gyuho/data.etcd/member/snap/0000000000000003-000000000002c895.snap successfully
2016-04-12 19:39:15.718426 I | fileutil: purged file /home/gyuho/data.etcd/member/snap/0000000000000003-000000000002f032.snap successfully
2016-04-12 19:39:15.718483 I | fileutil: purged file /home/gyuho/data.etcd/member/snap/0000000000000003-0000000000031813.snap successfully
2016-04-12 19:39:15.718535 I | fileutil: purged file /home/gyuho/data.etcd/member/snap/0000000000000003-0000000000033fb3.snap successfully
2016-04-12 19:39:15.718582 I | fileutil: purged file /home/gyuho/data.etcd/member/snap/0000000000000003-00000000000f94fa.snap successfully
2016-04-12 19:39:15.718623 I | fileutil: purged file /home/gyuho/data.etcd/member/snap/0000000000000003-00000000000fbc3e.snap successfully
2016-04-12 19:39:15.718666 I | fileutil: purged file /home/gyuho/data.etcd/member/snap/0000000000000003-00000000000fe450.snap successfully
2016-04-12 19:39:15.718712 I | fileutil: purged file /home/gyuho/data.etcd/member/snap/0000000000000003-0000000000100d02.snap successfully
2016-04-12 19:39:15.718755 I | fileutil: purged file /home/gyuho/data.etcd/member/snap/0000000000000003-0000000000103439.snap successfully
2016-04-12 19:39:15.718812 I | fileutil: purged file /home/gyuho/data.etcd/member/snap/0000000000000003-0000000000105b5e.snap successfully
2016-04-12 19:39:15.718853 I | fileutil: purged file /home/gyuho/data.etcd/member/snap/0000000000000003-00000000001083df.snap successfully
2016-04-12 19:39:15.718897 I | fileutil: purged file /home/gyuho/data.etcd/member/snap/0000000000000003-000000000010ab05.snap successfully
2016-04-12 19:39:15.718940 I | fileutil: purged file /home/gyuho/data.etcd/member/snap/0000000000000003-000000000010d359.snap successfully
2016-04-12 19:39:15.718983 I | fileutil: purged file /home/gyuho/data.etcd/member/snap/0000000000000003-000000000010fa94.snap successfully
2016-04-12 19:39:15.719028 I | fileutil: purged file /home/gyuho/data.etcd/member/snap/0000000000000003-000000000011227d.snap successfully
2016-04-12 19:39:15.719067 I | fileutil: purged file /home/gyuho/data.etcd/member/snap/0000000000000003-00000000001149ef.snap successfully
2016-04-12 19:39:15.719107 I | fileutil: purged file /home/gyuho/data.etcd/member/snap/0000000000000003-000000000011720e.snap successfully
2016-04-12 19:39:15.719145 I | fileutil: purged file /home/gyuho/data.etcd/member/snap/0000000000000003-00000000001199ea.snap successfully
2016-04-12 19:39:15.719186 I | fileutil: purged file /home/gyuho/data.etcd/member/snap/0000000000000003-000000000011c105.snap successfully
2016-04-12 19:39:15.719227 I | fileutil: purged file /home/gyuho/data.etcd/member/snap/0000000000000003-000000000011e836.snap successfully
2016-04-12 19:39:15.719268 I | fileutil: purged file /home/gyuho/data.etcd/member/snap/0000000000000003-0000000000120f51.snap successfully
2016-04-12 19:39:15.719306 I | fileutil: purged file /home/gyuho/data.etcd/member/snap/0000000000000003-000000000012369b.snap successfully
2016-04-12 19:39:15.719388 I | fileutil: purged file /home/gyuho/data.etcd/member/snap/0000000000000003-0000000000125e48.snap successfully
2016-04-12 19:39:15.719478 I | fileutil: purged file /home/gyuho/data.etcd/member/snap/0000000000000003-00000000001285c9.snap successfully
2016-04-12 19:39:15.719547 I | fileutil: purged file /home/gyuho/data.etcd/member/snap/0000000000000003-000000000012acf2.snap successfully
2016-04-12 19:39:15.719639 I | fileutil: purged file /home/gyuho/data.etcd/member/snap/0000000000000003-000000000012d422.snap successfully
2016-04-12 19:39:15.719694 I | fileutil: purged file /home/gyuho/data.etcd/member/snap/0000000000000003-000000000012fca8.snap successfully
2016-04-12 19:39:15.719738 I | fileutil: purged file /home/gyuho/data.etcd/member/snap/0000000000000003-00000000001323d5.snap successfully
2016-04-12 19:39:15.719844 I | fileutil: purged file /home/gyuho/data.etcd/member/snap/0000000000000003-0000000000134bb1.snap successfully
2016-04-12 19:39:15.719895 I | fileutil: purged file /home/gyuho/data.etcd/member/snap/0000000000000003-00000000001372ea.snap successfully
2016-04-12 19:39:15.719957 I | fileutil: purged file /home/gyuho/data.etcd/member/snap/0000000000000003-0000000000139a57.snap successfully
2016-04-12 19:39:15.719999 I | fileutil: purged file /home/gyuho/data.etcd/member/snap/0000000000000003-000000000013c1a9.snap successfully
2016-04-12 19:39:15.720042 I | fileutil: purged file /home/gyuho/data.etcd/member/snap/0000000000000003-000000000013e8ed.snap successfully
2016-04-12 19:39:15.725980 I | fileutil: purged file /home/gyuho/data.etcd/member/wal/0000000000000002-0000000000054bcf.wal successfully
2016-04-12 19:39:16.064417 W | etcdserver: failed to send out heartbeat on time (deadline exceeded for 934.281µs)
2016-04-12 19:39:16.064456 W | etcdserver: server is likely overloaded
2016-04-12 19:39:16.064470 W | etcdserver: failed to send out heartbeat on time (deadline exceeded for 997.061µs)
2016-04-12 19:39:16.064478 W | etcdserver: server is likely overloaded
2016-04-12 19:39:16.078782 I | etcdserver: start to snapshot (applied: 1365348, lastsnap: 1355218)
2016-04-12 19:39:16.089574 I | etcdserver: saved snapshot at index 1365348
2016-04-12 19:39:16.089781 I | etcdserver: compacted raft log at 1360348
2016-04-12 19:39:16.339824 I | etcdserver: start to snapshot (applied: 1375401, lastsnap: 1365348)
2016-04-12 19:39:16.351364 I | etcdserver: saved snapshot at index 1375401
2016-04-12 19:39:16.351561 I | etcdserver: compacted raft log at 1370401
2016-04-12 19:39:16.857850 I | etcdserver: start to snapshot (applied: 1385447, lastsnap: 1375401)
2016-04-12 19:39:16.865112 I | etcdserver: saved snapshot at index 1385447
2016-04-12 19:39:16.865285 I | etcdserver: compacted raft log at 1380447
2016-04-12 19:39:16.927068 I | wal: segmented wal file /home/gyuho/data.etcd/member/wal/0000000000000008-0000000000153102.wal is created
2016-04-12 19:39:17.126378 I | etcdserver: start to snapshot (applied: 1395554, lastsnap: 1385447)
2016-04-12 19:39:17.135113 I | etcdserver: saved snapshot at index 1395554
2016-04-12 19:39:17.135272 I | etcdserver: compacted raft log at 1390554
2016-04-12 19:39:17.550107 I | etcdserver: start to snapshot (applied: 1405620, lastsnap: 1395554)
2016-04-12 19:39:17.563224 I | etcdserver: saved snapshot at index 1405620
2016-04-12 19:39:17.563439 I | etcdserver: compacted raft log at 1400620
2016-04-12 19:39:17.984620 I | etcdserver: start to snapshot (applied: 1415640, lastsnap: 1405620)
2016-04-12 19:39:17.994166 I | etcdserver: saved snapshot at index 1415640
2016-04-12 19:39:17.994471 I | etcdserver: compacted raft log at 1410640
2016-04-12 19:39:18.291093 I | etcdserver: start to snapshot (applied: 1425713, lastsnap: 1415640)
2016-04-12 19:39:18.301429 I | etcdserver: saved snapshot at index 1425713
2016-04-12 19:39:18.301587 I | etcdserver: compacted raft log at 1420713
2016-04-12 19:39:18.711220 I | etcdserver: start to snapshot (applied: 1435995, lastsnap: 1425713)
2016-04-12 19:39:18.726476 I | etcdserver: saved snapshot at index 1435995
2016-04-12 19:39:18.726670 I | etcdserver: compacted raft log at 1430995
2016-04-12 19:39:19.022428 I | etcdserver: start to snapshot (applied: 1446099, lastsnap: 1435995)
2016-04-12 19:39:19.031946 I | etcdserver: saved snapshot at index 1446099
2016-04-12 19:39:19.032122 I | etcdserver: compacted raft log at 1441099
2016-04-12 19:39:19.276261 W | etcdserver: failed to send out heartbeat on time (deadline exceeded for 6.698161ms)
2016-04-12 19:39:19.276302 W | etcdserver: server is likely overloaded
2016-04-12 19:39:19.276316 W | etcdserver: failed to send out heartbeat on time (deadline exceeded for 6.767008ms)
2016-04-12 19:39:19.276326 W | etcdserver: server is likely overloaded
2016-04-12 19:39:19.489820 I | etcdserver: start to snapshot (applied: 1456122, lastsnap: 1446099)
2016-04-12 19:39:19.501163 I | etcdserver: saved snapshot at index 1456122
2016-04-12 19:39:19.501330 I | etcdserver: compacted raft log at 1451122
2016-04-12 19:39:19.821897 I | etcdserver: start to snapshot (applied: 1466183, lastsnap: 1456122)
2016-04-12 19:39:19.993014 W | etcdserver: failed to send out heartbeat on time (deadline exceeded for 9.801054ms)
2016-04-12 19:39:19.993070 W | etcdserver: server is likely overloaded
2016-04-12 19:39:19.993090 W | etcdserver: failed to send out heartbeat on time (deadline exceeded for 30.231278ms)
2016-04-12 19:39:19.993100 W | etcdserver: server is likely overloaded
2016-04-12 19:39:20.010491 I | etcdserver: saved snapshot at index 1466183
2016-04-12 19:39:20.010755 I | etcdserver: compacted raft log at 1461183
2016-04-12 19:39:20.305291 I | etcdserver: start to snapshot (applied: 1476354, lastsnap: 1466183)
2016-04-12 19:39:20.317512 I | etcdserver: saved snapshot at index 1476354
2016-04-12 19:39:20.317677 I | etcdserver: compacted raft log at 1471354
2016-04-12 19:39:20.760740 I | etcdserver: start to snapshot (applied: 1486429, lastsnap: 1476354)
2016-04-12 19:39:20.775021 I | etcdserver: saved snapshot at index 1486429
2016-04-12 19:39:20.775238 I | etcdserver: compacted raft log at 1481429
2016-04-12 19:39:21.090218 I | etcdserver: start to snapshot (applied: 1496499, lastsnap: 1486429)
2016-04-12 19:39:21.096973 I | etcdserver: saved snapshot at index 1496499
2016-04-12 19:39:21.097189 I | etcdserver: compacted raft log at 1491499
2016-04-12 19:39:21.410562 W | etcdserver: failed to send out heartbeat on time (deadline exceeded for 47.574779ms)
2016-04-12 19:39:21.410594 W | etcdserver: server is likely overloaded
2016-04-12 19:39:21.410608 W | etcdserver: failed to send out heartbeat on time (deadline exceeded for 47.631517ms)
2016-04-12 19:39:21.410617 W | etcdserver: server is likely overloaded
2016-04-12 19:39:21.543397 I | etcdserver: start to snapshot (applied: 1506530, lastsnap: 1496499)
2016-04-12 19:39:21.549233 I | etcdserver: saved snapshot at index 1506530
2016-04-12 19:39:21.549583 I | etcdserver: compacted raft log at 1501530
2016-04-12 19:39:21.856757 I | etcdserver: start to snapshot (applied: 1516695, lastsnap: 1506530)
2016-04-12 19:39:21.860902 I | etcdserver: saved snapshot at index 1516695
2016-04-12 19:39:21.861043 I | etcdserver: compacted raft log at 1511695
2016-04-12 19:39:22.302255 I | etcdserver: start to snapshot (applied: 1526753, lastsnap: 1516695)
2016-04-12 19:39:22.312224 I | etcdserver: saved snapshot at index 1526753
2016-04-12 19:39:22.312409 I | etcdserver: compacted raft log at 1521753
2016-04-12 19:39:22.630316 I | etcdserver: start to snapshot (applied: 1536810, lastsnap: 1526753)
2016-04-12 19:39:22.644636 I | etcdserver: saved snapshot at index 1536810
2016-04-12 19:39:22.644842 I | etcdserver: compacted raft log at 1531810
2016-04-12 19:39:23.075122 I | etcdserver: start to snapshot (applied: 1546949, lastsnap: 1536810)
2016-04-12 19:39:23.091143 I | etcdserver: saved snapshot at index 1546949
2016-04-12 19:39:23.091313 I | etcdserver: compacted raft log at 1541949
2016-04-12 19:39:23.565641 I | etcdserver: start to snapshot (applied: 1556998, lastsnap: 1546949)
2016-04-12 19:39:23.574289 I | etcdserver: saved snapshot at index 1556998
2016-04-12 19:39:23.574478 I | etcdserver: compacted raft log at 1551998
2016-04-12 19:39:23.689399 I | wal: segmented wal file /home/gyuho/data.etcd/member/wal/0000000000000009-000000000017d69f.wal is created
2016-04-12 19:39:23.836123 I | etcdserver: start to snapshot (applied: 1567198, lastsnap: 1556998)
2016-04-12 19:39:23.851078 I | etcdserver: saved snapshot at index 1567198
2016-04-12 19:39:23.851259 I | etcdserver: compacted raft log at 1562198
2016-04-12 19:39:24.306120 I | etcdserver: start to snapshot (applied: 1577284, lastsnap: 1567198)
2016-04-12 19:39:24.318418 I | etcdserver: saved snapshot at index 1577284
2016-04-12 19:39:24.318820 I | etcdserver: compacted raft log at 1572284
2016-04-12 19:39:24.580047 I | etcdserver: start to snapshot (applied: 1587291, lastsnap: 1577284)
2016-04-12 19:39:24.590618 I | etcdserver: saved snapshot at index 1587291
2016-04-12 19:39:24.590782 I | etcdserver: compacted raft log at 1582291
2016-04-12 19:39:25.053495 I | etcdserver: start to snapshot (applied: 1597422, lastsnap: 1587291)
2016-04-12 19:39:25.061093 I | etcdserver: saved snapshot at index 1597422
2016-04-12 19:39:25.062493 I | etcdserver: compacted raft log at 1592422
2016-04-12 19:39:25.320829 I | etcdserver: start to snapshot (applied: 1607443, lastsnap: 1597422)
2016-04-12 19:39:25.330661 I | etcdserver: saved snapshot at index 1607443
2016-04-12 19:39:25.330849 I | etcdserver: compacted raft log at 1602443
2016-04-12 19:39:25.802147 I | etcdserver: start to snapshot (applied: 1617877, lastsnap: 1607443)
2016-04-12 19:39:25.810443 I | etcdserver: saved snapshot at index 1617877
2016-04-12 19:39:25.810583 I | etcdserver: compacted raft log at 1612877
2016-04-12 19:39:26.100931 I | etcdserver: start to snapshot (applied: 1627969, lastsnap: 1617877)
2016-04-12 19:39:26.107662 I | etcdserver: saved snapshot at index 1627969
2016-04-12 19:39:26.107866 I | etcdserver: compacted raft log at 1622969
2016-04-12 19:39:26.539550 I | etcdserver: start to snapshot (applied: 1638021, lastsnap: 1627969)
2016-04-12 19:39:26.552702 I | etcdserver: saved snapshot at index 1638021
2016-04-12 19:39:26.552913 I | etcdserver: compacted raft log at 1633021
2016-04-12 19:39:26.851029 I | etcdserver: start to snapshot (applied: 1648111, lastsnap: 1638021)
2016-04-12 19:39:26.863974 I | etcdserver: saved snapshot at index 1648111
2016-04-12 19:39:26.864153 I | etcdserver: compacted raft log at 1643111
2016-04-12 19:39:27.106928 W | etcdserver: failed to send out heartbeat on time (deadline exceeded for 43.876746ms)
2016-04-12 19:39:27.106959 W | etcdserver: server is likely overloaded
2016-04-12 19:39:27.106967 W | etcdserver: failed to send out heartbeat on time (deadline exceeded for 43.937828ms)
2016-04-12 19:39:27.106972 W | etcdserver: server is likely overloaded
2016-04-12 19:39:27.291542 I | etcdserver: start to snapshot (applied: 1658151, lastsnap: 1648111)
2016-04-12 19:39:27.301725 I | etcdserver: saved snapshot at index 1658151
2016-04-12 19:39:27.301927 I | etcdserver: compacted raft log at 1653151
2016-04-12 19:39:27.588742 I | etcdserver: start to snapshot (applied: 1668159, lastsnap: 1658151)
2016-04-12 19:39:27.596251 I | etcdserver: saved snapshot at index 1668159
2016-04-12 19:39:27.596476 I | etcdserver: compacted raft log at 1663159
2016-04-12 19:39:28.035197 I | etcdserver: start to snapshot (applied: 1678264, lastsnap: 1668159)
2016-04-12 19:39:28.051330 I | etcdserver: saved snapshot at index 1678264
2016-04-12 19:39:28.051546 I | etcdserver: compacted raft log at 1673264
2016-04-12 19:39:28.342560 I | etcdserver: start to snapshot (applied: 1688376, lastsnap: 1678264)
2016-04-12 19:39:28.356980 I | etcdserver: saved snapshot at index 1688376
2016-04-12 19:39:28.357181 I | etcdserver: compacted raft log at 1683376
2016-04-12 19:39:28.582648 W | etcdserver: failed to send out heartbeat on time (deadline exceeded for 15.011715ms)
2016-04-12 19:39:28.582681 W | etcdserver: server is likely overloaded
2016-04-12 19:39:28.582696 W | etcdserver: failed to send out heartbeat on time (deadline exceeded for 15.076416ms)
2016-04-12 19:39:28.582716 W | etcdserver: server is likely overloaded
2016-04-12 19:39:28.814132 I | etcdserver: start to snapshot (applied: 1698381, lastsnap: 1688376)
2016-04-12 19:39:28.819381 I | etcdserver: saved snapshot at index 1698381
2016-04-12 19:39:28.819551 I | etcdserver: compacted raft log at 1693381
2016-04-12 19:39:29.125346 I | etcdserver: start to snapshot (applied: 1708484, lastsnap: 1698381)
2016-04-12 19:39:29.137892 I | etcdserver: saved snapshot at index 1708484
2016-04-12 19:39:29.138090 I | etcdserver: compacted raft log at 1703484
2016-04-12 19:39:29.597335 I | etcdserver: start to snapshot (applied: 1718497, lastsnap: 1708484)
2016-04-12 19:39:29.605636 I | etcdserver: saved snapshot at index 1718497
2016-04-12 19:39:29.605820 I | etcdserver: compacted raft log at 1713497
2016-04-12 19:39:29.929311 I | etcdserver: start to snapshot (applied: 1728602, lastsnap: 1718497)
2016-04-12 19:39:29.933133 I | etcdserver: saved snapshot at index 1728602
2016-04-12 19:39:29.933291 I | etcdserver: compacted raft log at 1723602
2016-04-12 19:39:30.278307 I | wal: segmented wal file /home/gyuho/data.etcd/member/wal/000000000000000a-00000000001a7c7a.wal is created
2016-04-12 19:39:30.372651 I | etcdserver: start to snapshot (applied: 1738636, lastsnap: 1728602)
2016-04-12 19:39:30.380309 I | etcdserver: saved snapshot at index 1738636
2016-04-12 19:39:30.380497 I | etcdserver: compacted raft log at 1733636
2016-04-12 19:39:30.711411 I | etcdserver: start to snapshot (applied: 1748644, lastsnap: 1738636)
2016-04-12 19:39:30.720204 I | etcdserver: saved snapshot at index 1748644
2016-04-12 19:39:30.720379 I | etcdserver: compacted raft log at 1743644
2016-04-12 19:39:31.166075 I | etcdserver: start to snapshot (applied: 1758695, lastsnap: 1748644)
2016-04-12 19:39:31.177433 I | etcdserver: saved snapshot at index 1758695
2016-04-12 19:39:31.177639 I | etcdserver: compacted raft log at 1753695
2016-04-12 19:39:31.471996 I | etcdserver: start to snapshot (applied: 1768748, lastsnap: 1758695)
2016-04-12 19:39:31.484852 I | etcdserver: saved snapshot at index 1768748
2016-04-12 19:39:31.485030 I | etcdserver: compacted raft log at 1763748
2016-04-12 19:39:31.964593 I | etcdserver: start to snapshot (applied: 1778822, lastsnap: 1768748)
2016-04-12 19:39:31.979675 I | etcdserver: saved snapshot at index 1778822
2016-04-12 19:39:31.979939 I | etcdserver: compacted raft log at 1773822
2016-04-12 19:39:32.267682 I | etcdserver: start to snapshot (applied: 1788842, lastsnap: 1778822)
2016-04-12 19:39:32.279718 I | etcdserver: saved snapshot at index 1788842
2016-04-12 19:39:32.279933 I | etcdserver: compacted raft log at 1783842
2016-04-12 19:39:32.575169 W | etcdserver: failed to send out heartbeat on time (deadline exceeded for 10.651335ms)
2016-04-12 19:39:32.575223 W | etcdserver: server is likely overloaded
2016-04-12 19:39:32.575241 W | etcdserver: failed to send out heartbeat on time (deadline exceeded for 11.609871ms)
2016-04-12 19:39:32.575251 W | etcdserver: server is likely overloaded
2016-04-12 19:39:32.751345 I | etcdserver: start to snapshot (applied: 1798992, lastsnap: 1788842)
2016-04-12 19:39:32.764340 I | etcdserver: saved snapshot at index 1798992
2016-04-12 19:39:32.764537 I | etcdserver: compacted raft log at 1793992
2016-04-12 19:39:33.041076 I | etcdserver: start to snapshot (applied: 1809127, lastsnap: 1798992)
2016-04-12 19:39:33.048503 I | etcdserver: saved snapshot at index 1809127
2016-04-12 19:39:33.048747 I | etcdserver: compacted raft log at 1804127
2016-04-12 19:39:33.519971 I | etcdserver: start to snapshot (applied: 1819183, lastsnap: 1809127)
2016-04-12 19:39:33.530422 I | etcdserver: saved snapshot at index 1819183
2016-04-12 19:39:33.530693 I | etcdserver: compacted raft log at 1814183
2016-04-12 19:39:33.781987 I | etcdserver: start to snapshot (applied: 1829187, lastsnap: 1819183)
2016-04-12 19:39:33.792780 I | etcdserver: saved snapshot at index 1829187
2016-04-12 19:39:33.792989 I | etcdserver: compacted raft log at 1824187
2016-04-12 19:39:34.269257 I | etcdserver: start to snapshot (applied: 1839196, lastsnap: 1829187)
2016-04-12 19:39:34.286001 I | etcdserver: saved snapshot at index 1839196
2016-04-12 19:39:34.286502 I | etcdserver: compacted raft log at 1834196
2016-04-12 19:39:34.592673 I | etcdserver: start to snapshot (applied: 1849366, lastsnap: 1839196)
2016-04-12 19:39:34.603681 I | etcdserver: saved snapshot at index 1849366
2016-04-12 19:39:34.603882 I | etcdserver: compacted raft log at 1844366
2016-04-12 19:39:35.095609 I | etcdserver: start to snapshot (applied: 1859520, lastsnap: 1849366)
2016-04-12 19:39:35.111269 I | etcdserver: saved snapshot at index 1859520
2016-04-12 19:39:35.111585 I | etcdserver: compacted raft log at 1854520
2016-04-12 19:39:35.419940 I | etcdserver: start to snapshot (applied: 1869643, lastsnap: 1859520)
2016-04-12 19:39:35.433901 I | etcdserver: saved snapshot at index 1869643
2016-04-12 19:39:35.434086 I | etcdserver: compacted raft log at 1864643
2016-04-12 19:39:35.934672 I | etcdserver: start to snapshot (applied: 1879652, lastsnap: 1869643)
2016-04-12 19:39:35.943362 I | etcdserver: saved snapshot at index 1879652
2016-04-12 19:39:35.943522 I | etcdserver: compacted raft log at 1874652
2016-04-12 19:39:36.233971 I | etcdserver: start to snapshot (applied: 1889867, lastsnap: 1879652)
2016-04-12 19:39:36.242488 I | etcdserver: saved snapshot at index 1889867
2016-04-12 19:39:36.242664 I | etcdserver: compacted raft log at 1884867
2016-04-12 19:39:36.558371 I | etcdserver: start to snapshot (applied: 1899912, lastsnap: 1889867)
2016-04-12 19:39:36.565841 I | etcdserver: saved snapshot at index 1899912
2016-04-12 19:39:36.566004 I | etcdserver: compacted raft log at 1894912
2016-04-12 19:39:36.762513 W | etcdserver: failed to send out heartbeat on time (deadline exceeded for 522.744µs)
2016-04-12 19:39:36.762601 W | etcdserver: server is likely overloaded
2016-04-12 19:39:36.762625 W | etcdserver: failed to send out heartbeat on time (deadline exceeded for 650.196µs)
2016-04-12 19:39:36.762657 W | etcdserver: server is likely overloaded
2016-04-12 19:39:37.014355 I | wal: segmented wal file /home/gyuho/data.etcd/member/wal/000000000000000b-00000000001d228c.wal is created
2016-04-12 19:39:37.049447 I | etcdserver: start to snapshot (applied: 1910016, lastsnap: 1899912)
2016-04-12 19:39:37.060435 I | etcdserver: saved snapshot at index 1910016
2016-04-12 19:39:37.060644 I | etcdserver: compacted raft log at 1905016
2016-04-12 19:39:37.363909 I | etcdserver: start to snapshot (applied: 1920034, lastsnap: 1910016)
2016-04-12 19:39:37.372478 I | etcdserver: saved snapshot at index 1920034
2016-04-12 19:39:37.372646 I | etcdserver: compacted raft log at 1915034
2016-04-12 19:39:37.901278 I | etcdserver: start to snapshot (applied: 1930146, lastsnap: 1920034)
2016-04-12 19:39:37.914029 I | etcdserver: saved snapshot at index 1930146
2016-04-12 19:39:37.914216 I | etcdserver: compacted raft log at 1925146
2016-04-12 19:39:38.223637 I | etcdserver: start to snapshot (applied: 1940278, lastsnap: 1930146)
2016-04-12 19:39:38.231391 I | etcdserver: saved snapshot at index 1940278
2016-04-12 19:39:38.231567 I | etcdserver: compacted raft log at 1935278
2016-04-12 19:39:38.723403 I | etcdserver: start to snapshot (applied: 1950356, lastsnap: 1940278)
2016-04-12 19:39:38.734451 I | etcdserver: saved snapshot at index 1950356
2016-04-12 19:39:38.734922 I | etcdserver: compacted raft log at 1945356
2016-04-12 19:39:39.061057 I | etcdserver: start to snapshot (applied: 1960440, lastsnap: 1950356)
2016-04-12 19:39:39.073713 I | etcdserver: saved snapshot at index 1960440
2016-04-12 19:39:39.073892 I | etcdserver: compacted raft log at 1955440
2016-04-12 19:39:39.576582 I | etcdserver: start to snapshot (applied: 1970493, lastsnap: 1960440)
2016-04-12 19:39:39.591108 I | etcdserver: saved snapshot at index 1970493
2016-04-12 19:39:39.591603 I | etcdserver: compacted raft log at 1965493
2016-04-12 19:39:39.893356 I | etcdserver: start to snapshot (applied: 1980611, lastsnap: 1970493)
2016-04-12 19:39:39.905303 I | etcdserver: saved snapshot at index 1980611
2016-04-12 19:39:39.905497 I | etcdserver: compacted raft log at 1975611
2016-04-12 19:39:40.222625 I | etcdserver: start to snapshot (applied: 1990641, lastsnap: 1980611)
2016-04-12 19:39:40.232168 I | etcdserver: saved snapshot at index 1990641
2016-04-12 19:39:40.232345 I | etcdserver: compacted raft log at 1985641
2016-04-12 19:39:45.720391 I | fileutil: purged file /home/gyuho/data.etcd/member/snap/0000000000000003-0000000000141004.snap successfully
2016-04-12 19:39:45.720451 I | fileutil: purged file /home/gyuho/data.etcd/member/snap/0000000000000003-000000000014374f.snap successfully
2016-04-12 19:39:45.720483 I | fileutil: purged file /home/gyuho/data.etcd/member/snap/0000000000000003-0000000000145ee0.snap successfully
2016-04-12 19:39:45.720513 I | fileutil: purged file /home/gyuho/data.etcd/member/snap/0000000000000003-0000000000148671.snap successfully
2016-04-12 19:39:45.720541 I | fileutil: purged file /home/gyuho/data.etcd/member/snap/0000000000000003-000000000014add2.snap successfully
2016-04-12 19:39:45.720571 I | fileutil: purged file /home/gyuho/data.etcd/member/snap/0000000000000003-000000000014d564.snap successfully
2016-04-12 19:39:45.720600 I | fileutil: purged file /home/gyuho/data.etcd/member/snap/0000000000000003-000000000014fca9.snap successfully
2016-04-12 19:39:45.720628 I | fileutil: purged file /home/gyuho/data.etcd/member/snap/0000000000000003-00000000001523e7.snap successfully
2016-04-12 19:39:45.720654 I | fileutil: purged file /home/gyuho/data.etcd/member/snap/0000000000000003-0000000000154b62.snap successfully
2016-04-12 19:39:45.720681 I | fileutil: purged file /home/gyuho/data.etcd/member/snap/0000000000000003-00000000001572b4.snap successfully
2016-04-12 19:39:45.720707 I | fileutil: purged file /home/gyuho/data.etcd/member/snap/0000000000000003-00000000001599d8.snap successfully
2016-04-12 19:39:45.720733 I | fileutil: purged file /home/gyuho/data.etcd/member/snap/0000000000000003-000000000015c131.snap successfully
2016-04-12 19:39:45.720770 I | fileutil: purged file /home/gyuho/data.etcd/member/snap/0000000000000003-000000000015e95b.snap successfully
2016-04-12 19:39:45.720799 I | fileutil: purged file /home/gyuho/data.etcd/member/snap/0000000000000003-00000000001610d3.snap successfully
2016-04-12 19:39:45.720825 I | fileutil: purged file /home/gyuho/data.etcd/member/snap/0000000000000003-00000000001637fa.snap successfully
2016-04-12 19:39:45.720851 I | fileutil: purged file /home/gyuho/data.etcd/member/snap/0000000000000003-0000000000165f47.snap successfully
2016-04-12 19:39:45.720876 I | fileutil: purged file /home/gyuho/data.etcd/member/snap/0000000000000003-0000000000168702.snap successfully
2016-04-12 19:39:45.720901 I | fileutil: purged file /home/gyuho/data.etcd/member/snap/0000000000000003-000000000016ae5d.snap successfully
2016-04-12 19:39:45.720929 I | fileutil: purged file /home/gyuho/data.etcd/member/snap/0000000000000003-000000000016d5b3.snap successfully
2016-04-12 19:39:45.720956 I | fileutil: purged file /home/gyuho/data.etcd/member/snap/0000000000000003-000000000016fce2.snap successfully
2016-04-12 19:39:45.720987 I | fileutil: purged file /home/gyuho/data.etcd/member/snap/0000000000000003-0000000000172497.snap successfully
2016-04-12 19:39:45.721030 I | fileutil: purged file /home/gyuho/data.etcd/member/snap/0000000000000003-0000000000174be1.snap successfully
2016-04-12 19:39:45.721077 I | fileutil: purged file /home/gyuho/data.etcd/member/snap/0000000000000003-000000000017732a.snap successfully
2016-04-12 19:39:45.721119 I | fileutil: purged file /home/gyuho/data.etcd/member/snap/0000000000000003-0000000000179ac5.snap successfully
2016-04-12 19:39:45.721167 I | fileutil: purged file /home/gyuho/data.etcd/member/snap/0000000000000003-000000000017c206.snap successfully
2016-04-12 19:39:45.721211 I | fileutil: purged file /home/gyuho/data.etcd/member/snap/0000000000000003-000000000017e9de.snap successfully
2016-04-12 19:39:45.721244 I | fileutil: purged file /home/gyuho/data.etcd/member/snap/0000000000000003-0000000000181144.snap successfully
2016-04-12 19:39:45.721284 I | fileutil: purged file /home/gyuho/data.etcd/member/snap/0000000000000003-000000000018385b.snap successfully
2016-04-12 19:39:45.721312 I | fileutil: purged file /home/gyuho/data.etcd/member/snap/0000000000000003-0000000000185fee.snap successfully
2016-04-12 19:39:45.721338 I | fileutil: purged file /home/gyuho/data.etcd/member/snap/0000000000000003-0000000000188713.snap successfully
2016-04-12 19:39:45.721365 I | fileutil: purged file /home/gyuho/data.etcd/member/snap/0000000000000003-000000000018afd5.snap successfully
2016-04-12 19:39:45.721392 I | fileutil: purged file /home/gyuho/data.etcd/member/snap/0000000000000003-000000000018d741.snap successfully
2016-04-12 19:39:45.721418 I | fileutil: purged file /home/gyuho/data.etcd/member/snap/0000000000000003-000000000018fe85.snap successfully
2016-04-12 19:39:45.721451 I | fileutil: purged file /home/gyuho/data.etcd/member/snap/0000000000000003-00000000001925ef.snap successfully
2016-04-12 19:39:45.721477 I | fileutil: purged file /home/gyuho/data.etcd/member/snap/0000000000000003-0000000000194d27.snap successfully
2016-04-12 19:39:45.721503 I | fileutil: purged file /home/gyuho/data.etcd/member/snap/0000000000000003-000000000019743f.snap successfully
2016-04-12 19:39:45.721537 I | fileutil: purged file /home/gyuho/data.etcd/member/snap/0000000000000003-0000000000199bb8.snap successfully
2016-04-12 19:39:45.721568 I | fileutil: purged file /home/gyuho/data.etcd/member/snap/0000000000000003-000000000019c338.snap successfully
2016-04-12 19:39:45.721595 I | fileutil: purged file /home/gyuho/data.etcd/member/snap/0000000000000003-000000000019ea4d.snap successfully
2016-04-12 19:39:45.721621 I | fileutil: purged file /home/gyuho/data.etcd/member/snap/0000000000000003-00000000001a11c4.snap successfully
2016-04-12 19:39:45.721646 I | fileutil: purged file /home/gyuho/data.etcd/member/snap/0000000000000003-00000000001a38e1.snap successfully
2016-04-12 19:39:45.721672 I | fileutil: purged file /home/gyuho/data.etcd/member/snap/0000000000000003-00000000001a605a.snap successfully
2016-04-12 19:39:45.721703 I | fileutil: purged file /home/gyuho/data.etcd/member/snap/0000000000000003-00000000001a878c.snap successfully
2016-04-12 19:39:45.721730 I | fileutil: purged file /home/gyuho/data.etcd/member/snap/0000000000000003-00000000001aaea4.snap successfully
2016-04-12 19:39:45.721771 I | fileutil: purged file /home/gyuho/data.etcd/member/snap/0000000000000003-00000000001ad5e7.snap successfully
2016-04-12 19:39:45.721799 I | fileutil: purged file /home/gyuho/data.etcd/member/snap/0000000000000003-00000000001afd2c.snap successfully
2016-04-12 19:39:45.721824 I | fileutil: purged file /home/gyuho/data.etcd/member/snap/0000000000000003-00000000001b2486.snap successfully
2016-04-12 19:39:45.721850 I | fileutil: purged file /home/gyuho/data.etcd/member/snap/0000000000000003-00000000001b4baa.snap successfully
2016-04-12 19:39:45.721888 I | fileutil: purged file /home/gyuho/data.etcd/member/snap/0000000000000003-00000000001b7350.snap successfully
2016-04-12 19:39:45.721928 I | fileutil: purged file /home/gyuho/data.etcd/member/snap/0000000000000003-00000000001b9ae7.snap successfully
2016-04-12 19:39:45.721956 I | fileutil: purged file /home/gyuho/data.etcd/member/snap/0000000000000003-00000000001bc22f.snap successfully
2016-04-12 19:39:45.721982 I | fileutil: purged file /home/gyuho/data.etcd/member/snap/0000000000000003-00000000001be943.snap successfully
2016-04-12 19:39:45.722008 I | fileutil: purged file /home/gyuho/data.etcd/member/snap/0000000000000003-00000000001c105c.snap successfully
2016-04-12 19:39:45.722033 I | fileutil: purged file /home/gyuho/data.etcd/member/snap/0000000000000003-00000000001c3816.snap successfully
2016-04-12 19:39:45.722058 I | fileutil: purged file /home/gyuho/data.etcd/member/snap/0000000000000003-00000000001c5fc0.snap successfully
2016-04-12 19:39:45.722083 I | fileutil: purged file /home/gyuho/data.etcd/member/snap/0000000000000003-00000000001c874b.snap successfully
2016-04-12 19:39:45.722109 I | fileutil: purged file /home/gyuho/data.etcd/member/snap/0000000000000003-00000000001cae64.snap successfully
2016-04-12 19:39:45.722141 I | fileutil: purged file /home/gyuho/data.etcd/member/snap/0000000000000003-00000000001cd64b.snap successfully
2016-04-12 19:39:45.722168 I | fileutil: purged file /home/gyuho/data.etcd/member/snap/0000000000000003-00000000001cfd88.snap successfully
2016-04-12 19:39:45.722193 I | fileutil: purged file /home/gyuho/data.etcd/member/snap/0000000000000003-00000000001d2500.snap successfully
2016-04-12 19:39:45.722224 I | fileutil: purged file /home/gyuho/data.etcd/member/snap/0000000000000003-00000000001d4c22.snap successfully
2016-04-12 19:39:45.722250 I | fileutil: purged file /home/gyuho/data.etcd/member/snap/0000000000000003-00000000001d73a2.snap successfully
2016-04-12 19:39:45.722278 I | fileutil: purged file /home/gyuho/data.etcd/member/snap/0000000000000003-00000000001d9b36.snap successfully
2016-04-12 19:39:45.733104 I | fileutil: purged file /home/gyuho/data.etcd/member/wal/0000000000000003-000000000007f213.wal successfully
2016-04-12 19:39:45.739981 I | fileutil: purged file /home/gyuho/data.etcd/member/wal/0000000000000004-00000000000a97f1.wal successfully
2016-04-12 19:39:45.747063 I | fileutil: purged file /home/gyuho/data.etcd/member/wal/0000000000000005-00000000000d3e0f.wal successfully
2016-04-12 19:39:45.753984 I | fileutil: purged file /home/gyuho/data.etcd/member/wal/0000000000000006-00000000000fe462.wal successfully
2016-04-12 19:39:47.210162 N | osutil: received terminated signal, shutting down...
2016-04-12 19:39:47.210737 E | rafthttp: failed to read cfc6e2e1de0e7922 on stream MsgApp v2 (net/http: request canceled)
2016-04-12 19:39:47.210756 I | rafthttp: the connection with cfc6e2e1de0e7922 became inactive
2016-04-12 19:39:47.211280 E | rafthttp: failed to read f9e96ef8c0d0e08c on stream MsgApp v2 (net/http: request canceled)
2016-04-12 19:39:47.211299 I | rafthttp: the connection with f9e96ef8c0d0e08c became inactive
