{"level":"info","msg":"gRPC serving :3500","time":"2016-04-16T00:26:12Z"}
{"level":"info","msg":"Working directory: /home/gyuho","time":"2016-04-16T00:28:14Z"}
{"level":"info","msg":"etcd data directory: /home/gyuho/data.etcd","time":"2016-04-16T00:28:14Z"}
{"level":"info","msg":"Consul data directory: /home/gyuho/data.consul","time":"2016-04-16T00:28:14Z"}
{"level":"info","msg":"Zookeeper working directory: /home/gyuho/zookeeper","time":"2016-04-16T00:28:14Z"}
{"level":"info","msg":"Zookeeper data directory: /home/gyuho/zookeeper/data.zk","time":"2016-04-16T00:28:14Z"}
{"level":"info","msg":"Database log path: /home/gyuho/database.log","time":"2016-04-16T00:28:14Z"}
{"level":"info","msg":"Monitor result path: /home/gyuho/monitor.csv","time":"2016-04-16T00:28:14Z"}
{"level":"info","msg":"os.Chdir: /home/gyuho/zookeeper","time":"2016-04-16T00:28:14Z"}
{"level":"info","msg":"os.MkdirAll: /home/gyuho/zookeeper/data.zk","time":"2016-04-16T00:28:14Z"}
{"level":"info","msg":"Writing 2 to /home/gyuho/zookeeper/data.zk/myid","time":"2016-04-16T00:28:14Z"}
{"level":"info","msg":"Writing \"tickTime=2000\\ndataDir=/home/gyuho/zookeeper/data.zk\\nclientPort=2181\\ninitLimit=5\\nsyncLimit=5\\nmaxClientCnxns=5000\\nsnapCount=500000\\nserver.1=10.240.0.16:2888:3888\\nserver.2=10.240.0.17:2888:3888\\nserver.3=10.240.0.18:2888:3888\\n\\n\" to /home/gyuho/zookeeper/zookeeper.config","time":"2016-04-16T00:28:14Z"}
{"level":"info","msg":"Starting: /bin/bash -c /usr/bin/java -cp zookeeper-3.4.8.jar:lib/slf4j-api-1.6.1.jar:lib/slf4j-log4j12-1.6.1.jar:lib/log4j-1.2.16.jar:conf org.apache.zookeeper.server.quorum.QuorumPeerMain /home/gyuho/zookeeper/zookeeper.config","time":"2016-04-16T00:28:14Z"}
{"level":"info","msg":"Started: /bin/bash [PID: 18308]","time":"2016-04-16T00:28:14Z"}
{"level":"info","msg":"Transfer success!","time":"2016-04-16T00:28:14Z"}
{"level":"info","msg":"ZooKeeper monitor saved at /home/gyuho/monitor.csv","time":"2016-04-16T00:28:14Z"}
{"level":"info","msg":"Stopping ZooKeeper [PID: 18308]","time":"2016-04-16T00:29:35Z"}
{"level":"info","msg":"Stopped: /bin/bash [PID: 18308]","time":"2016-04-16T00:29:35Z"}
{"level":"info","msg":"Transfer success!","time":"2016-04-16T00:29:35Z"}
{"level":"info","msg":"Monitoring stopped. Uploading data to cloud storage...","time":"2016-04-16T00:29:35Z"}
{"level":"info","msg":"Uploading /home/gyuho/database.log to bench-03-zk-snapshot2-2-database.log","time":"2016-04-16T00:29:35Z"}
{"level":"info","msg":"/bin/bash cmd.Wait returned exit status 143","time":"2016-04-16T00:29:35Z"}
{"level":"info","msg":"Uploading /home/gyuho/monitor.csv to bench-03-zk-snapshot2-2-monitor.csv","time":"2016-04-16T00:29:36Z"}
{"level":"info","msg":"Uploading /home/gyuho/agent.log to bench-03-zk-snapshot2-2-agent.log","time":"2016-04-16T00:29:36Z"}
